"BreedIDDesc","GenderIDDesc","color","vaccination_yrs","WhereBittenIDDesc","vacinated"
"DACHSHUND","MALE","Red",1,"BODY","Yes"
"SHIH TZU","MALE","White",3,"BODY","Yes"
"SHIH TZU","FEMALE","Black",1,"BODY","Yes"
"COCKER SPAINEL","MALE","Black",1,"HEAD","Yes"
"PIT BULL","MALE","White",0,"BODY","No"
"CHICHAUHUA","FEMALE","Tan",0,"HEAD","No"
"PIT BULL","FEMALE","Black",3,"HEAD","Yes"
"CHOW CHOW","FEMALE","Red",3,"BODY","Yes"
"PIT BULL","MALE","Brown",0,"HEAD","No"
"BOXER","MALE","Gray",3,"BODY","Yes"
"AAUST. TERR.","MALE","Black",1,"BODY","Yes"
"COCKER SPAINEL","MALE","Black",0,"BODY","No"
"GERM SHEPHERD","MALE","Black",3,"BODY","Yes"
"DACHSHUND","MALE","Black",1,"BODY","Yes"
"BULLMASTIFF","MALE","Brown",3,"BODY","Yes"
"BORDER COLLIE","FEMALE","Black",1,"BODY","Yes"
"PIT BULL","MALE","White",1,"BODY","Yes"
"YORKSHIRE TERRIER","MALE","White",1,"BODY","Yes"
"CHICHAUHUA","MALE","Black",0,"BODY","No"
"SHIH TZU","FEMALE","Black",0,"BODY","No"
"DACHSHUND","MALE","Black",1,"BODY","Yes"
"GERM SHEPHERD","MALE","Black",0,"BODY","No"
"PIT BULL","MALE","White",0,"BODY","No"
"AMER. BULL DOG","MALE","White",0,"BODY","No"
"AAUST. TERR.","FEMALE","Brown",0,"BODY","No"
"YORKSHIRE TERRIER","FEMALE","Black",0,"BODY","No"
"PIT BULL","MALE","Black",0,"BODY","No"
"PIT BULL","MALE","Black",0,"HEAD","Yes"
"PIT BULL","FEMALE","White",0,"BODY","No"
"PIT BULL","MALE","White",0,"BODY","No"
"PIT BULL","FEMALE","Brindle",0,"BODY","No"
"DACHSHUND","FEMALE","Brown",0,"BODY","No"
"LABRADOR RETRIV","MALE","Red",0,"BODY","No"
"BOXER","MALE","Brindle",0,"BODY","No"
"PIT BULL","MALE","Black",0,"BODY","No"
"SHIH TZU","FEMALE","Black",0,"BODY","No"
"PIT BULL","MALE","White",0,"BODY","No"
"PIT BULL","MALE","White",0,"BODY","No"
"PIT BULL","MALE","White",0,"BODY","No"
"LABRADOR RETRIV","FEMALE","Black",0,"HEAD","No"
"MASTIF","MALE","Brindle",0,"BODY","No"
"LABRADOR RETRIV","FEMALE","Black",0,"BODY","No"
"CHOW CHOW","MALE","Brown",0,"HEAD","No"
"PIT BULL","MALE","White",0,"BODY","No"
"GREAT DANE","MALE","Black",0,"BODY","No"
"YORKSHIRE TERRIER","MALE","Tan",0,"BODY","No"
"PIT BULL","MALE","Brown",0,"BODY","No"
"BEAGLE","MALE","White",1,"BODY","Yes"
"ROTTWEILER","MALE","Black",3,"BODY","Yes"
"POODLE","MALE","Black",1,"BODY","Yes"
"PIT BULL","MALE","Black",0,"BODY","No"
"GERM SHEPHERD","MALE","Black",3,"BODY","Yes"
"PIT BULL","FEMALE","Black",0,"BODY","No"
"WEIMARANER","MALE","Gray",3,"BODY","Yes"
"CORGI","FEMALE","Black",0,"BODY","No"
"BOSTON TERRIER","MALE","Black",1,"BODY","Yes"
"HUSKY","MALE","White",1,"BODY","Yes"
"LABRADOR RETRIV","MALE","Black",1,"HEAD","Yes"
"SCHNAUZER","FEMALE","Black",1,"BODY","Yes"
"PIT BULL","MALE","White",0,"BODY","Yes"
"CHICHAUHUA","MALE","Brown",0,"BODY","No"
"PIT BULL","FEMALE","Brindle",1,"BODY","Yes"
"PIT BULL","MALE","White",1,"BODY","Yes"
"LABRADOR RETRIV","FEMALE","Black",0,"BODY","No"
"MIN PIN","MALE","Black",1,"BODY","Yes"
"PIT BULL","MALE","White",0,"BODY","No"
"PIT BULL","MALE","White",0,"BODY","No"
"POODLE","FEMALE","White",1,"BODY","Yes"
"GERM SHEPHERD","MALE","Black",1,"BODY","Yes"
"CHICHAUHUA","MALE","White",0,"BODY","No"
"ROTTWEILER","MALE","Black",3,"BODY","Yes"
"GERM SHEPHERD","FEMALE","Black",1,"BODY","Yes"
"DACHSHUND","MALE","Brown",3,"BODY","Yes"
"ROTTWEILER","MALE","Black",1,"BODY","Yes"
"SHIH TZU","FEMALE","Black",1,"HEAD","Yes"
"WELSH CORGI","MALE","White",0,"BODY","No"
"PIT BULL","FEMALE","Black",1,"BODY","Yes"
"LABRADOR RETRIV","MALE","Red",1,"BODY","Yes"
"YORKSHIRE TERRIER","MALE","Black",1,"BODY","Yes"
"POMERANIAN","MALE","Tan",1,"BODY","Yes"
"GERM SHEPHERD","MALE","Black",0,"BODY","No"
"SHIH TZU","MALE","Black",1,"HEAD","Yes"
"BULL DOG","FEMALE","White",1,"BODY","Yes"
"PIT BULL","MALE","Gray",1,"BODY","Yes"
"BOXER","MALE","Tan",0,"BODY","No"
"MASTIF","MALE","Brindle",1,"BODY","Yes"
"GERM SHEPHERD","MALE","Gray",1,"BODY","Yes"
"COCKER SPAINEL","FEMALE","Black",1,"BODY","Yes"
"MASTIF","FEMALE","Tan",3,"BODY","Yes"
"CHICHAUHUA","MALE","White",1,"HEAD","Yes"
"SCHNAUZER","FEMALE","Black",3,"HEAD","Yes"
"PIT BULL","MALE","White",0,"HEAD","No"
"BORDER COLLIE","MALE","Black",0,"BODY","No"
"WEIMARANER","MALE","Gray",1,"BODY","Yes"
"LABRADOR RETRIV","MALE","Black",0,"BODY","No"
"DACHSHUND","MALE","Black",3,"HEAD","Yes"
"GERM SHEPHERD","MALE","White",1,"BODY","Yes"
"SIBERAN HUSKY","MALE","White",3,"BODY","Yes"
"AM BULLDOG","MALE","White",1,"BODY","Yes"
"GOLD RETRIEVER","MALE","Red",1,"BODY","Yes"
"GERM SHEPHERD","MALE","Black",3,"BODY","Yes"
"BOXER","MALE","White",3,"BODY","Yes"
"CHICHAUHUA","FEMALE","Tan",0,"BODY","No"
"PIT BULL","MALE","White",1,"BODY","Yes"
"PIT BULL","FEMALE","Tan",1,"BODY","Yes"
"LABRADOR RETRIV","MALE","Black",0,"HEAD","No"
"DACHSHUND","MALE","Brown",1,"HEAD","Yes"
"CHICHAUHUA","MALE","Black",0,"BODY","No"
"PIT BULL","FEMALE","Black",1,"BODY","Yes"
"BOXER","MALE","Brindle",1,"HEAD","No"
"AMER. BULL DOG","FEMALE","White",3,"BODY","Yes"
"PIT BULL","MALE","White",1,"BODY","Yes"
"BOXER","FEMALE","White",3,"HEAD","Yes"
"BOXER","FEMALE","Brindle",0,"BODY","No"
"SAMOYED","MALE","White",1,"BODY","Yes"
"BORDER COLLIE","FEMALE","Black",3,"HEAD","Yes"
"GERM SHEPHERD","MALE","Black",1,"BODY","Yes"
"LABRADOR RETRIV","MALE","Brown",1,"BODY","Yes"
"PIT BULL","MALE","White",1,"BODY","Yes"
"BOXER","MALE","Brown",0,"BODY","Yes"
"MALTASE","MALE","White",3,"BODY","Yes"
"LABRADOR RETRIV","MALE","Brown",1,"BODY","Yes"
"AKITA","MALE","Black",0,"BODY","No"
"MALTASE","FEMALE","White",1,"BODY","Yes"
"PIT BULL","FEMALE","Black",1,"BODY","Yes"
"SHIH TZU","FEMALE","White",0,"BODY","No"
"BOSTON TERRIER","MALE","Black",1,"HEAD","Yes"
"HUSKY","FEMALE","Black",1,"BODY","Yes"
"PIT BULL","FEMALE","Brindle",1,"BODY","Yes"
"AM BULLDOG","FEMALE","White",3,"BODY","Yes"
"CHOW CHOW","FEMALE","Black",3,"BODY","Yes"
"PIT BULL","MALE","White",1,"BODY","Yes"
"SAINT BERNARD","MALE","White",0,"BODY","No"
"DACHSHUND","MALE","Black",1,"HEAD","Yes"
"BOSTON TERRIER","FEMALE","Black",1,"HEAD","Yes"
"SIBERAN HUSKY","MALE","White",0,"HEAD","Yes"
"SHIH TZU","MALE","White",1,"HEAD","Yes"
"PIT BULL","MALE","White",1,"HEAD","Yes"
"PIT BULL","MALE","White",1,"BODY","Yes"
"BOXER","MALE","Black",1,"BODY","Yes"
"BEAGLE","FEMALE","Brown",1,"HEAD","Yes"
"LABRADOR RETRIV","MALE","Black",0,"HEAD","No"
"AM. ESKIMO","MALE","White",0,"BODY","No"
"PIT BULL","MALE","White",1,"BODY","Yes"
"SHELTIE","MALE","White",1,"HEAD","Yes"
"CHICHAUHUA","MALE","Black",1,"HEAD","Yes"
"LABRADOR RETRIV","MALE","Black",3,"BODY","Yes"
"SHIH TZU","FEMALE","Red",1,"BODY","Yes"
"PIT BULL","FEMALE","White",1,"BODY","Yes"
"PIT BULL","FEMALE","White",0,"HEAD","No"
"AM BULLDOG","MALE","Black",3,"BODY","Yes"
"BICHON FRISE","MALE","White",1,"BODY","Yes"
"PIT BULL","FEMALE","Black",0,"BODY","No"
"PUG","MALE","Black",1,"BODY","Yes"
"GREYHOUND","MALE","White",3,"BODY","Yes"
"PIT BULL","MALE","Black",0,"BODY","No"
"PIT BULL","MALE","White",0,"HEAD","No"
"PIT BULL","MALE","White",0,"BODY","No"
"DOBERMAN","MALE","Black",1,"BODY","Yes"
"AIREDALE TER.","MALE","Black",1,"BODY","Yes"
"BOSTON TERRIER","FEMALE","Black",1,"BODY","Yes"
"GERM SHEPHERD","FEMALE","Black",1,"HEAD","Yes"
"SCHNAUZER","MALE","Gray",3,"BODY","Yes"
"DOTSON","MALE","Brown",1,"BODY","Yes"
"CHOW CHOW","FEMALE","Brown",0,"HEAD","No"
"AAUST. TERR.","MALE","White",0,"HEAD","No"
"PIT BULL","MALE","White",0,"BODY","No"
"CHICHAUHUA","FEMALE","White",0,"BODY","No"
"PIT BULL","MALE","White",0,"BODY","No"
"PIT BULL","MALE","Brown",1,"BODY","Yes"
"COCKER SPAINEL","FEMALE","Brown",0,"BODY","No"
"AM BULLDOG","MALE","Tan",1,"HEAD","Yes"
"ROTTWEILER","MALE","Black",1,"BODY","Yes"
"BULLMASTIFF","MALE","Brindle",0,"BODY","No"
"GERM SHEPHERD","MALE","Black",3,"BODY","Yes"
"LHASA APSO","FEMALE","Gray",1,"BODY","Yes"
"PIT BULL","MALE","White",0,"BODY","No"
"PIT BULL","MALE","White",1,"BODY","Yes"
"PIT BULL","FEMALE","Brown",1,"BODY","Yes"
"SHIH TZU","MALE","Black",1,"HEAD","Yes"
"SHIH TZU","MALE","White",1,"HEAD","Yes"
"BOXER","MALE","White",1,"HEAD","Yes"
"BERNESEN MT.","FEMALE","Black",1,"BODY","Yes"
"MIN PIN","MALE","Black",1,"BODY","Yes"
"PIT BULL","FEMALE","Black",1,"BODY","Yes"
"GERM SHEPHERD","MALE","Black",3,"BODY","Yes"
"PIT BULL","MALE","Brown",0,"BODY","No"
"BOXER","MALE","Brown",1,"HEAD","Yes"
"HAVANESE","FEMALE","Black",1,"BODY","Yes"
"GREAT DANE","MALE","Black",3,"BODY","Yes"
"DOBERMAN","FEMALE","Black",3,"BODY","Yes"
"BOXER","MALE","Brown",1,"BODY","No"
"LABRADOR RETRIV","MALE","Black",1,"BODY","Yes"
"ENGLISH SETTER","FEMALE","White",1,"BODY","Yes"
"POMERANIAN","MALE","Brown",1,"BODY","Yes"
"PIT BULL","MALE","White",0,"BODY","No"
"PIT BULL","FEMALE","Brown",0,"BODY","No"
"BEAGLE","MALE","White",1,"BODY","Yes"
"DOBERMAN","MALE","Black",3,"BODY","Yes"
"LABRADOR RETRIV","FEMALE","Black",0,"BODY","No"
"GERM SHEPHERD","MALE","Black",1,"BODY","Yes"
"PIT BULL","MALE","White",0,"HEAD","No"
"DACHSHUND","MALE","Red",1,"BODY","Yes"
"SHIH TZU","MALE","Black",0,"BODY","No"
"AM BULLDOG","MALE","White",3,"BODY","Yes"
"DACHSHUND","MALE","Black",1,"BODY","Yes"
"PIT BULL","FEMALE","Black",1,"HEAD","Yes"
"SCHNAUZER","FEMALE","Black",1,"BODY","Yes"
"GERM SHEPHERD","MALE","Black",1,"BODY","Yes"
"PIT BULL","MALE","Black",1,"BODY","Yes"
"GERM SHEPHERD","MALE","Black",1,"BODY","No"
"GERM SHEPHERD","MALE","Black",0,"HEAD","No"
"AKITA","FEMALE","Black",1,"BODY","Yes"
"PIT BULL","MALE","Black",1,"BODY","Yes"
"PIT BULL","MALE","Brown",1,"BODY","Yes"
"DACHSHUND","FEMALE","Black",1,"HEAD","Yes"
"COCKAPOO","FEMALE","White",1,"HEAD","Yes"
"PIT BULL","MALE","White",1,"HEAD","Yes"
"PIT BULL","FEMALE","Tan",0,"BODY","No"
"PIT BULL","MALE","White",0,"BODY","No"
"POMERANIAN","MALE","Brown",1,"BODY","Yes"
"OLD ENG SHP DOG","MALE","White",1,"BODY","Yes"
"POMERANIAN","MALE","Brown",1,"BODY","Yes"
"DACHSHUND","MALE","Red",1,"BODY","Yes"
"MIN PIN","FEMALE","Black",3,"BODY","Yes"
"BOXER","FEMALE","White",1,"BODY","Yes"
"PIT BULL","FEMALE","Black",0,"HEAD","No"
"BULLMASTIFF","MALE","Brown",0,"BODY","No"
"PIT BULL","MALE","Brown",1,"BODY","Yes"
"MALTASE","MALE","White",1,"BODY","Yes"
"GERM SHEPHERD","MALE","Black",1,"BODY","Yes"
"PIT BULL","MALE","Black",1,"BODY","Yes"
"PIT BULL","MALE","Black",1,"BODY","Yes"
"GERM SHEPHERD","MALE","Black",0,"HEAD","No"
"CHICHAUHUA","MALE","Black",0,"BODY","No"
"AAUST. TERR.","FEMALE","White",1,"BODY","Yes"
"PIT BULL","MALE","White",1,"BODY","Yes"
"CHICHAUHUA","FEMALE","Black",1,"BODY","Yes"
"MIN PIN","FEMALE","Black",0,"BODY","No"
"BEAGLE","FEMALE","Black",1,"BODY","Yes"
"AM BULLDOG","MALE","White",0,"BODY","No"
"PIT BULL","MALE","Black",0,"BODY","No"
"BEAGLE","MALE","Brown",0,"BODY","No"
"AKITA","MALE","Black",1,"BODY","Yes"
"DACHSHUND","FEMALE","Red",1,"BODY","Yes"
"ROTTWEILER","MALE","Black",3,"HEAD","No"
"PIT BULL","MALE","White",0,"BODY","No"
"SHIH TZU","MALE","White",1,"BODY","Yes"
"CHICHAUHUA","MALE","White",1,"BODY","Yes"
"GERM SHEPHERD","MALE","Brown",1,"BODY","Yes"
"COCKER SPAINEL","MALE","Black",1,"BODY","Yes"
"BOXER","FEMALE","Brindle",1,"BODY","Yes"
"GERM SHEPHERD","MALE","Brown",0,"BODY","No"
"GERM SHEPHERD","FEMALE","Black",1,"BODY","Yes"
"PIT BULL","MALE","Tan",1,"BODY","Yes"
"SHIH TZU","MALE","Black",1,"HEAD","Yes"
"MALTASE","MALE","White",1,"BODY","Yes"
"YORKSHIRE TERRIER","FEMALE","Black",1,"BODY","Yes"
"COCKER SPAINEL","MALE","White",1,"BODY","Yes"
"WESTIE","FEMALE","White",1,"HEAD","Yes"
"SHIH TZU","MALE","Gray",1,"BODY","Yes"
"SHIH TZU","MALE","Tan",1,"BODY","Yes"
"LABRADOR RETRIV","MALE","Black",1,"BODY","Yes"
"PIT BULL","FEMALE","White",0,"BODY","No"
"SHIH TZU","MALE","White",0,"HEAD","No"
"BEAGLE","MALE","Black",0,"BODY","No"
"BULLMASTIFF","MALE","Brown",0,"BODY","No"
"LABRADOR RETRIV","MALE","Black",0,"HEAD","No"
"POMERANIAN","MALE","White",0,"BODY","No"
"GERM SHEPHERD","FEMALE","Black",0,"BODY","No"
"LABRADOR RETRIV","MALE","Black",1,"BODY","Yes"
"PIT BULL","MALE","White",1,"BODY","Yes"
"LABRADOR RETRIV","MALE","Black",0,"HEAD","Yes"
"WEIMARANER","MALE","Gray",0,"BODY","No"
"GOLD RETRIEVER","FEMALE","Red",0,"BODY","No"
"PIT BULL","MALE","White",0,"BODY","No"
"DOTSON","MALE","Brown",0,"HEAD","No"
"PIT BULL","MALE","Brindle",1,"BODY","No"
"PIT BULL","MALE","White",0,"BODY","No"
"BOXER","FEMALE","Black",0,"BODY","No"
"PIT BULL","FEMALE","White",0,"BODY","No"
"PIT BULL","FEMALE","White",0,"BODY","Yes"
"PIT BULL","FEMALE","White",0,"BODY","Yes"
"PIT BULL","FEMALE","White",0,"BODY","No"
"YORKSHIRE TERRIER","MALE","Tan",0,"BODY","Yes"
"PIT BULL","MALE","Black",0,"BODY","Yes"
"BOXER","MALE","White",0,"HEAD","Yes"
"BOXER","FEMALE","White",0,"BODY","No"
"CHICHAUHUA","MALE","White",0,"BODY","No"
"SCHNAUZER","MALE","Black",3,"HEAD","Yes"
"MALTASE","MALE","White",1,"HEAD","Yes"
"PIT BULL","FEMALE","White",3,"BODY","Yes"
"PIT BULL","FEMALE","Black",0,"BODY","No"
"LABRADOR RETRIV","MALE","Black",0,"BODY","Yes"
"BASSET HOUND","MALE","White",0,"HEAD","No"
"SHIH TZU","MALE","White",1,"BODY","Yes"
"AKITA","MALE","Black",1,"BODY","Yes"
"PIT BULL","FEMALE","White",0,"BODY","Yes"
"AAUST. TERR.","FEMALE","White",3,"HEAD","Yes"
"RAT TERRIER","MALE","Black",0,"HEAD","No"
"GERM SHEPHERD","MALE","Black",1,"HEAD","Yes"
"PIT BULL","MALE","Brown",0,"BODY","No"
"GERM SHEPHERD","MALE","Black",3,"BODY","Yes"
"BORDER COLLIE","MALE","Black",1,"BODY","Yes"
"GERM SHEPHERD","MALE","Black",3,"BODY","Yes"
"GREAT DANE","MALE","Brown",3,"BODY","Yes"
"WESTIE","FEMALE","White",1,"HEAD","Yes"
"BOXER","MALE","Red",1,"BODY","Yes"
"BOXER","FEMALE","Brindle",1,"BODY","Yes"
"GERM SHEPHERD","MALE","Black",0,"BODY","No"
"SCHNAUZER","MALE","Black",1,"HEAD","Yes"
"BASSET HOUND","MALE","Black",0,"BODY","No"
"PIT BULL","MALE","White",1,"HEAD","Yes"
"BOSTON TERRIER","FEMALE","Black",1,"BODY","Yes"
"PIT BULL","MALE","White",0,"HEAD","No"
"CHICHAUHUA","MALE","Brown",0,"HEAD","No"
"LABRADOR RETRIV","MALE","Black",1,"BODY","Yes"
"BORDER COLLIE","FEMALE","Black",0,"HEAD","No"
"BULLMASTIFF","MALE","Gray",1,"HEAD","Yes"
"PIT BULL","MALE","Brown",0,"BODY","No"
"LABRADOR RETRIV","FEMALE","Black",0,"BODY","No"
"CHICHAUHUA","FEMALE","White",0,"BODY","No"
"LABRADOR RETRIV","FEMALE","Black",3,"BODY","Yes"
"DACHSHUND","MALE","Black",0,"BODY","No"
"PIT BULL","MALE","White",0,"BODY","No"
"CHOW CHOW","FEMALE","Red",0,"BODY","No"
"MIN PIN","MALE","Black",3,"BODY","Yes"
"PIT BULL","MALE","Black",0,"BODY","No"
"PIT BULL","MALE","White",0,"BODY","No"
"GERM SHEPHERD","MALE","Black",0,"BODY","Yes"
"WELSH CORGI","FEMALE","Tan",0,"BODY","No"
"PIT BULL","MALE","White",0,"HEAD","No"
"PIT BULL","FEMALE","White",0,"BODY","No"
"PIT BULL","MALE","White",0,"HEAD","No"
"GERM SHEPHERD","MALE","Black",0,"HEAD","Yes"
"PIT BULL","FEMALE","Brown",0,"BODY","No"
"BORDER COLLIE","MALE","Black",0,"BODY","No"
"AKITA","MALE","Black",0,"BODY","No"
"YORKSHIRE TERRIER","MALE","Tan",0,"BODY","No"
"DALMATIAN","FEMALE","White",0,"BODY","No"
"FOX TERRIER MIX","MALE","White",1,"BODY","Yes"
"BOXER","MALE","White",0,"BODY","No"
"BEAGLE","FEMALE","Brown",0,"BODY","No"
"DOBERMAN","FEMALE","Red",0,"HEAD","No"
"ENGLISH BULLDOG","MALE","White",3,"HEAD","Yes"
"BOXER","MALE","Brown",1,"BODY","Yes"
"DACHSHUND","FEMALE","Red",1,"BODY","Yes"
"PIT BULL","MALE","Black",0,"BODY","No"
"BOXER","MALE","Black",0,"HEAD","No"
"SHAR-PEI","MALE","Red",1,"BODY","Yes"
"BOXER","FEMALE","Black",3,"BODY","Yes"
"RAT TERRIER","MALE","White",1,"BODY","Yes"
"BOSTON TERRIER","FEMALE","Black",0,"HEAD","No"
"PIT BULL","MALE","White",1,"BODY","Yes"
"GERM SHEPHERD","MALE","Black",3,"BODY","Yes"
"BORDER COLLIE M","MALE","White",3,"BODY","Yes"
"AKITA","MALE","Brown",0,"HEAD","No"
"SHIH TZU","MALE","Brown",1,"HEAD","Yes"
"PIT BULL","MALE","Black",3,"BODY","Yes"
"PIT BULL","MALE","Brindle",0,"BODY","No"
"AAUST. TERR.","MALE","Brown",1,"HEAD","Yes"
"PIT BULL","FEMALE","White",0,"BODY","No"
"BORDER COLLIE","MALE","Black",3,"BODY","Yes"
"CHICHAUHUA","FEMALE","Brown",0,"HEAD","No"
"PIT BULL","FEMALE","Black",0,"BODY","No"
"CHOW CHOW","FEMALE","Red",0,"BODY","No"
"BEAGLE","MALE","White",1,"BODY","Yes"
"SHIH TZU","FEMALE","White",0,"HEAD","No"
"BEAGLE","MALE","White",0,"BODY","Yes"
"GERM SHEPHERD","FEMALE","Black",1,"BODY","Yes"
"PIT BULL","MALE","Red",0,"BODY","No"
"PIT BULL","MALE","Brown",3,"BODY","Yes"
"BEAGLE","MALE","Black",3,"BODY","Yes"
"GERM SHEPHERD","FEMALE","White",1,"HEAD","Yes"
"PIT BULL","MALE","White",0,"BODY","No"
"GERM SHEPHERD","FEMALE","White",1,"BODY","Yes"
"GERM SHEPHERD","MALE","Black",1,"BODY","Yes"
"BASANJI","FEMALE","White",0,"BODY","No"
"GREAT DANE","MALE","Brindle",3,"BODY","Yes"
"CHICHAUHUA","MALE","White",3,"BODY","Yes"
"PIT BULL","MALE","White",0,"BODY","Yes"
"GERM SHEPHERD","MALE","Black",3,"BODY","Yes"
"PIT BULL","MALE","Tan",0,"BODY","No"
"POODLE","FEMALE","White",0,"BODY","No"
"GOLD RETRIEVER","MALE","White",0,"HEAD","No"
"ROTTWEILER","MALE","Black",0,"BODY","No"
"GERM SHEPHERD","MALE","Black",3,"BODY","Yes"
"PIT BULL","FEMALE","Tan",0,"BODY","No"
"LABRADOR RETRIV","MALE","Brown",3,"BODY","Yes"
"PIT BULL","MALE","White",0,"BODY","No"
"PIT BULL","MALE","White",0,"BODY","No"
"PIT BULL","MALE","Brindle",0,"BODY","No"
"LABRADOR RETRIV","FEMALE","Black",3,"BODY","Yes"
"BLOOD HOUND","MALE","Black",3,"BODY","Yes"
"PIT BULL","FEMALE","White",1,"BODY","Yes"
"AAUST. TERR.","FEMALE","Gray",0,"BODY","No"
"DOTSON","MALE","Black",3,"BODY","Yes"
"CHICHAUHUA","MALE","Brown",0,"HEAD","No"
"PIT BULL","MALE","White",0,"HEAD","No"
"PIT BULL","MALE","Tan",3,"BODY","Yes"
"BORDER COLLIE M","FEMALE","Brown",1,"BODY","Yes"
"HUSKY","MALE","Brown",3,"HEAD","Yes"
"LABRADOR RETRIV","MALE","Black",0,"HEAD","No"
"BOXER","FEMALE","Black",3,"BODY","Yes"
"SHIH TZU","MALE","Black",1,"BODY","Yes"
"PIT BULL","FEMALE","White",1,"HEAD","Yes"
"POMERANIAN","MALE","Black",0,"BODY","No"
"GERM SHEPHERD","FEMALE","Tan",1,"HEAD","Yes"
"AKITA","FEMALE","Gray",1,"HEAD","Yes"
"BRITNEY SPANIEL","MALE","White",1,"HEAD","Yes"
"PIT BULL","MALE","Black",0,"BODY","No"
"CHICHAUHUA","MALE","Black",1,"HEAD","Yes"
"RAT TERRIER","FEMALE","White",1,"HEAD","Yes"
"BICHON FRESE","MALE","White",0,"BODY","Yes"
"POMERANIAN","MALE","Brown",1,"BODY","Yes"
"CHICHAUHUA","FEMALE","Black",1,"BODY","Yes"
"SHEEP DOG","MALE","Black",0,"BODY","No"
"GERM SHEPHERD","MALE","Black",0,"BODY","No"
"PIT BULL","MALE","Tan",1,"BODY","Yes"
"PIT BULL","FEMALE","White",0,"BODY","No"
"BULL DOG","MALE","White",3,"BODY","Yes"
"POODLE","MALE","Black",0,"BODY","No"
"GERM SHEPHERD","MALE","Black",0,"BODY","Yes"
"PIT BULL","FEMALE","Black",0,"BODY","No"
"BOXER","MALE","Brown",1,"HEAD","Yes"
"LABRADOR RETRIV","MALE","Brown",3,"BODY","Yes"
"DACHSHUND","MALE","Brown",1,"BODY","Yes"
"POODLE","MALE","Black",1,"BODY","Yes"
"BEAGLE","FEMALE","Black",0,"BODY","No"
"DACHSHUND","MALE","Black",0,"BODY","No"
"GERM SHEPHERD","FEMALE","Brown",0,"BODY","No"
"PIT BULL","MALE","White",1,"BODY","Yes"
"CHICHAUHUA","MALE","Brown",0,"BODY","No"
"PIT BULL","MALE","White",0,"HEAD","No"
"AAUST. TERR.","MALE","Black",0,"BODY","Yes"
"ENGLISH BULLDOG","FEMALE","Black",1,"BODY","Yes"
"GERM SHEPHERD","FEMALE","Black",1,"BODY","Yes"
"DOBERMAN","MALE","Tan",3,"HEAD","Yes"
"GERM SHEPHERD","MALE","Black",0,"BODY","No"
"GERM SHEPHERD","MALE","Brown",1,"BODY","Yes"
"GERM SHEPHERD","MALE","Brown",3,"BODY","Yes"
"CHOW CHOW","FEMALE","Red",3,"BODY","Yes"
"WEIMARANER","MALE","Gray",0,"BODY","Yes"
"PIT BULL","MALE","Black",0,"BODY","No"
"AKITA","FEMALE","Black",1,"BODY","Yes"
"PIT BULL","FEMALE","Black",0,"BODY","No"
"PIT BULL","MALE","Red",0,"BODY","No"
"SHAR-PEI","MALE","Black",1,"BODY","Yes"
"POODLE","FEMALE","Black",1,"BODY","Yes"
"POMERANIAN","MALE","Black",0,"BODY","Yes"
"PIT BULL","MALE","Black",0,"BODY","Yes"
"GREAT PYRENEESE","FEMALE","White",0,"BODY","No"
"PIT BULL","FEMALE","Black",0,"BODY","No"
"SCHNAUZER","MALE","White",3,"BODY","Yes"
"PIT BULL","FEMALE","Black",1,"BODY","Yes"
"PIT BULL","MALE","Black",0,"BODY","No"
"PIT BULL","MALE","Brown",1,"BODY","Yes"
"GERM SHEPHERD","MALE","Brown",0,"BODY","No"
"PIT BULL","FEMALE","Black",0,"BODY","Yes"
"LABRADOR RETRIV","MALE","Brown",1,"BODY","Yes"
"CHOW CHOW","FEMALE","Black",0,"BODY","No"
"PIT BULL","MALE","Red",1,"BODY","Yes"
"LABRADOR RETRIV","MALE","Black",1,"HEAD","Yes"
"ROTTWEILER","FEMALE","Brown",1,"BODY","Yes"
"BORDER COLLIE","MALE","Black",0,"BODY","No"
"MIN PIN","MALE","Black",0,"BODY","No"
"PIT BULL","MALE","White",1,"BODY","Yes"
"PIT BULL","MALE","Brown",0,"BODY","No"
"SIBERAN HUSKY","FEMALE","Black",0,"HEAD","No"
"GERM SHEPHERD","MALE","Black",1,"BODY","Yes"
"WELSH CORGI","FEMALE","White",0,"BODY","Yes"
"GERM SHEPHERD","FEMALE","Brown",1,"BODY","Yes"
"PIT BULL","MALE","White",0,"BODY","No"
"ENGLISH BULLDOG","MALE","White",1,"BODY","Yes"
"LHASA APSO","FEMALE","White",1,"BODY","Yes"
"YORKSHIRE TERRIER","FEMALE","Black",3,"BODY","Yes"
"PIT BULL","MALE","White",0,"HEAD","No"
"DOBERMAN","FEMALE","Black",1,"BODY","Yes"
"LABRADOR RETRIV","MALE","Black",0,"BODY","No"
"PIT BULL","FEMALE","Black",0,"BODY","Yes"
"SHIH TZU","FEMALE","Black",0,"BODY","Yes"
"AM BULLDOG","MALE","White",0,"BODY","No"
"DACHSHUND","MALE","White",1,"HEAD","Yes"
"BRITNEY SPANIEL","MALE","White",1,"HEAD","Yes"
"RAT TERRIER","MALE","White",0,"BODY","No"
"PIT BULL","MALE","Brindle",0,"BODY","Yes"
"BORDER COLLIE","MALE","Black",0,"HEAD","No"
"SIBERAN HUSKY","MALE","White",0,"BODY","No"
"BOXER","MALE","White",0,"BODY","No"
"SHIH TZU","FEMALE","White",1,"BODY","Yes"
"PEKINGESE","FEMALE","Black",1,"BODY","Yes"
"PIT BULL","MALE","White",1,"BODY","Yes"
"PIT BULL","MALE","Black",1,"BODY","Yes"
"BOXER","FEMALE","White",1,"HEAD","Yes"
"CATAHOULA","FEMALE","White",3,"BODY","Yes"
"BOXER","MALE","White",0,"BODY","No"
"BOXER","MALE","Tan",0,"BODY","Yes"
"SHIH TZU","MALE","White",3,"HEAD","Yes"
"BOXER","MALE","Black",0,"BODY","No"
"PIT BULL","FEMALE","Brown",0,"HEAD","No"
"PIT BULL","MALE","Brown",1,"HEAD","Yes"
"BEAGLE","FEMALE","Brown",1,"BODY","Yes"
"BEAGLE","MALE","Black",1,"HEAD","Yes"
"POMERANIAN","FEMALE","Red",0,"BODY","No"
"PIT BULL","MALE","Red",0,"BODY","No"
"PIT BULL","MALE","White",0,"BODY","No"
"PIT BULL","MALE","Black",1,"BODY","Yes"
"SHIH TZU","MALE","Black",1,"HEAD","Yes"
"SCHNAUZER","MALE","Black",1,"BODY","Yes"
"CHICHAUHUA","MALE","Black",0,"BODY","No"
"BORDER COLLIE","MALE","Black",1,"BODY","Yes"
"SHIH TZU","FEMALE","Black",3,"BODY","Yes"
"AAUST. TERR.","MALE","Black",0,"BODY","No"
"BOXER","MALE","White",3,"BODY","Yes"
"MASTIF","MALE","Brindle",1,"BODY","Yes"
"PIT BULL","MALE","Brown",1,"BODY","Yes"
"BOXER","MALE","Brindle",1,"HEAD","Yes"
"GERM SHEPHERD","MALE","Black",1,"BODY","Yes"
"WESTIE","FEMALE","White",0,"BODY","No"
"PIT BULL","MALE","Black",3,"BODY","Yes"
"AAUST. TERR.","MALE","Black",0,"BODY","No"
"PIT BULL","MALE","White",0,"BODY","No"
"PIT BULL","FEMALE","White",0,"BODY","No"
"PIT BULL","FEMALE","Tan",0,"BODY","No"
"PIT BULL","FEMALE","Black",0,"BODY","No"
"SHIH TZU","FEMALE","White",0,"BODY","No"
"AM BULLDOG","MALE","Black",0,"BODY","No"
"AAUST. TERR.","FEMALE","Black",1,"BODY","Yes"
"HUSKY","MALE","Black",1,"BODY","Yes"
"PIT BULL","FEMALE","White",0,"HEAD","No"
"PIT BULL","FEMALE","White",0,"BODY","No"
"AKITA","FEMALE","Black",1,"BODY","Yes"
"CATAHOULA","FEMALE","Black",0,"BODY","Yes"
"BICHON FRESE","MALE","White",1,"BODY","Yes"
"WELSH CORGI","MALE","White",1,"BODY","Yes"
"BORDER COLLIE","FEMALE","White",1,"BODY","Yes"
"CHICHAUHUA","FEMALE","Brown",1,"BODY","Yes"
"PIT BULL","FEMALE","Brown",1,"BODY","Yes"
"PIT BULL","MALE","Brown",0,"HEAD","No"
"IRISH SETTER","MALE","Black",1,"BODY","Yes"
"LABRADOR RETRIV","FEMALE","Black",0,"BODY","No"
"PIT BULL","MALE","Brindle",0,"BODY","Yes"
"LABRADOR RETRIV","FEMALE","Black",1,"BODY","Yes"
"PYRENES","MALE","White",1,"HEAD","Yes"
"SAINT BERNARD","MALE","Black",0,"BODY","No"
"BOXER","FEMALE","Brown",3,"BODY","Yes"
"ALASK. MALAMUTE","MALE","Black",0,"BODY","No"
"PIT BULL","FEMALE","White",0,"HEAD","No"
"SIBERAN HUSKY","FEMALE","White",0,"HEAD","No"
"AMER. BULL DOG","MALE","White",0,"HEAD","No"
"SHIH TZU","MALE","Black",1,"HEAD","Yes"
"CANE CORSO","MALE","Tan",0,"BODY","No"
"LABRADOR RETRIV","MALE","Black",0,"BODY","Yes"
"PIT BULL","MALE","Brindle",0,"BODY","No"
"PIT BULL","MALE","White",0,"BODY","No"
"PIT BULL","FEMALE","Black",1,"BODY","Yes"
"POODLE","FEMALE","White",1,"BODY","Yes"
"PIT BULL","MALE","White",1,"BODY","Yes"
"ROTTWEILER","MALE","Black",1,"BODY","Yes"
"BASSET HOUND","MALE","Brown",0,"HEAD","No"
"PIT BULL","FEMALE","Brindle",1,"BODY","Yes"
"CHICHAUHUA","MALE","White",1,"BODY","Yes"
"POMERANIAN","MALE","White",1,"BODY","Yes"
"ALASK. MALAMUTE","MALE","Brown",1,"BODY","Yes"
"PIT BULL","MALE","Black",3,"BODY","Yes"
"ENGLISH BULLDOG","MALE","White",1,"HEAD","Yes"
"PIT BULL","MALE","White",0,"BODY","No"
"POMERANIAN","MALE","Red",1,"HEAD","Yes"
"YORKSHIRE TERRIER","FEMALE","Brown",1,"BODY","Yes"
"SHIH TZU","MALE","Black",0,"BODY","Yes"
"AAUST. TERR.","MALE","Black",0,"BODY","No"
"PIT BULL","MALE","Brindle",0,"BODY","No"
"PIT BULL","MALE","Brown",1,"HEAD","Yes"
"CHICHAUHUA","MALE","Black",0,"HEAD","No"
"CHOW CHOW","MALE","Black",0,"HEAD","No"
"PIT BULL","FEMALE","Brown",0,"HEAD","No"
"PIT BULL","MALE","White",1,"BODY","Yes"
"YORKSHIRE TERRIER","MALE","Black",0,"BODY","Yes"
"CHICHAUHUA","FEMALE","Tan",1,"BODY","Yes"
"GERM SHEPHERD","MALE","Black",3,"BODY","Yes"
"GERM SHEPHERD","MALE","Black",1,"BODY","Yes"
"CHICHAUHUA","MALE","Black",0,"BODY","No"
"CHICHAUHUA","MALE","Black",1,"HEAD","Yes"
"GREAT DANE","MALE","Black",3,"HEAD","Yes"
"RAT TERRIER","FEMALE","Gray",3,"BODY","Yes"
"DOTSON","MALE","Brown",1,"BODY","Yes"
"MIN PIN","MALE","Black",1,"BODY","Yes"
"LABRADOR RETRIV","MALE","Black",3,"BODY","Yes"
"PIT BULL","FEMALE","White",1,"BODY","Yes"
"LABRADOR RETRIV","MALE","Brown",0,"HEAD","Yes"
"LABRADOR RETRIV","MALE","Black",0,"BODY","Yes"
"ENGLISH BULLDOG","FEMALE","Black",1,"BODY","Yes"
"LABRADOR RETRIV","MALE","Black",0,"BODY","Yes"
"PIT BULL","MALE","White",1,"HEAD","Yes"
"PIT BULL","FEMALE","White",1,"BODY","Yes"
"SCHNAUZER","FEMALE","Gray",0,"BODY","No"
"PIT BULL","MALE","Brindle",0,"HEAD","No"
"PIT BULL","MALE","Brown",0,"BODY","No"
"MIN PIN","MALE","Black",0,"HEAD","Yes"
"PIT BULL","MALE","White",0,"BODY","No"
"PIT BULL","MALE","White",0,"BODY","No"
"PIT BULL","FEMALE","Brindle",0,"BODY","No"
"SCHNAUZER","FEMALE","Black",1,"HEAD","Yes"
"ROTTWEILER","MALE","Black",1,"BODY","Yes"
"ROTTWEILER","MALE","Black",0,"BODY","No"
"PIT BULL","MALE","White",1,"BODY","Yes"
"PIT BULL","FEMALE","Black",0,"BODY","No"
"WESTIE","MALE","White",3,"BODY","Yes"
"LABRADOR RETRIV","MALE","Black",1,"HEAD","Yes"
"ENGLISH BULLDOG","MALE","Brindle",1,"BODY","Yes"
"BORDER COLLIE","MALE","Black",1,"HEAD","Yes"
"BULLMASTIFF","MALE","White",0,"BODY","No"
"SHIH TZU","MALE","Black",0,"HEAD","Yes"
"PIT BULL","MALE","White",1,"BODY","Yes"
"BOXER","MALE","Brindle",3,"BODY","Yes"
"PIT BULL","MALE","Black",0,"BODY","No"
"RAT TERRIER","MALE","Black",0,"HEAD","No"
"PIT BULL","FEMALE","Gray",1,"BODY","Yes"
"DACHSHUND","MALE","Black",3,"BODY","Yes"
"PIT BULL","FEMALE","Brindle",0,"BODY","No"
"FOX TERRIER","MALE","White",3,"BODY","Yes"
"GERM SHEPHERD","MALE","White",1,"BODY","Yes"
"GREAT DANE","MALE","Tan",3,"HEAD","Yes"
"SHIH TZU","MALE","Gray",1,"BODY","Yes"
"PIT BULL","MALE","White",1,"BODY","Yes"
"PIT BULL","FEMALE","Black",1,"BODY","Yes"
"PIT BULL","MALE","White",0,"BODY","Yes"
"DOTSON","FEMALE","Black",1,"BODY","Yes"
"HUSKY","FEMALE","Black",0,"HEAD","No"
"LABRADOR RETRIV","MALE","Black",1,"BODY","Yes"
"GERM SHEPHERD","MALE","Black",3,"BODY","Yes"
"AAUST. TERR.","MALE","White",1,"BODY","Yes"
"ROTTWEILER","MALE","Black",0,"BODY","No"
"BOXER","MALE","White",1,"BODY","Yes"
"SIBERAN HUSKY","FEMALE","Black",1,"BODY","Yes"
"DACHSHUND","MALE","Red",0,"BODY","No"
"SHIH TZU","MALE","White",1,"HEAD","Yes"
"AM BULLDOG","MALE","White",1,"BODY","Yes"
"PIT BULL","MALE","Black",0,"BODY","No"
"MALTASE","MALE","White",3,"HEAD","Yes"
"COCKER SPAINEL","MALE","Brown",1,"BODY","Yes"
"BOXER","MALE","White",1,"BODY","Yes"
"SHEEP DOG","FEMALE","Black",1,"BODY","Yes"
"CHICHAUHUA","MALE","Brown",0,"BODY","No"
"ENGLISH SHEPARD","MALE","White",1,"HEAD","Yes"
"LABRADOR RETRIV","MALE","Black",0,"BODY","No"
"PIT BULL","FEMALE","White",0,"BODY","Yes"
"PIT BULL","MALE","White",0,"BODY","No"
"BOXER","MALE","White",1,"BODY","Yes"
"GERM SHEPHERD","FEMALE","Black",0,"BODY","No"
"PIT BULL","FEMALE","Brown",0,"HEAD","Yes"
"PIT BULL","MALE","White",0,"BODY","No"
"PIT BULL","MALE","White",1,"BODY","Yes"
"PIT BULL","FEMALE","White",0,"BODY","No"
"SHIH TZU","FEMALE","Black",1,"BODY","Yes"
"PIT BULL","MALE","Black",0,"HEAD","No"
"PIT BULL","MALE","White",0,"BODY","No"
"GERM SHEPHERD","MALE","Black",0,"BODY","No"
"PIT BULL","FEMALE","White",0,"BODY","No"
"AKITA","MALE","Black",1,"BODY","Yes"
"PIT BULL","MALE","Brindle",0,"BODY","No"
"POMERANIAN","MALE","Black",0,"BODY","Yes"
"PIT BULL","MALE","Red",0,"BODY","No"
"ALASK. MALAMUTE","FEMALE","White",0,"BODY","No"
"PIT BULL","FEMALE","White",0,"BODY","No"
"BOXER","MALE","Brindle",1,"BODY","Yes"
"WESTIE","MALE","White",1,"BODY","Yes"
"LABRADOR RETRIV","MALE","Black",1,"HEAD","Yes"
"PIT BULL","MALE","White",1,"BODY","Yes"
"POODLE","MALE","Brown",1,"BODY","Yes"
"SCHNAUZER","FEMALE","Black",3,"BODY","Yes"
"SCHNAUZER","FEMALE","White",1,"BODY","Yes"
"GERM SHEPHERD","MALE","Black",0,"BODY","No"
"ROTTWEILER","MALE","Black",1,"BODY","Yes"
"MIN PIN","MALE","Black",0,"BODY","No"
"PIT BULL","FEMALE","Brindle",1,"BODY","Yes"
"SHIH TZU","FEMALE","White",3,"BODY","Yes"
"HUSKY","FEMALE","Brown",1,"BODY","Yes"
"YORKSHIRE TERRIER","MALE","Black",1,"BODY","Yes"
"GERM SHEPHERD","MALE","Black",1,"BODY","Yes"
"BEAGLE","MALE","Tan",1,"BODY","Yes"
"DACHSHUND","MALE","Red",0,"BODY","No"
"BOXER","FEMALE","Brindle",1,"BODY","Yes"
"CHICHAUHUA","MALE","Brown",1,"BODY","Yes"
"PIT BULL","MALE","Brindle",0,"BODY","No"
"BOXER","MALE","Brindle",0,"BODY","No"
"LABRADOR RETRIV","FEMALE","Black",0,"BODY","No"
"ENG. MASTIFF","MALE","Tan",1,"HEAD","Yes"
"PIT BULL","MALE","White",0,"BODY","No"
"BOXER","MALE","Black",1,"BODY","Yes"
"MASTIF","MALE","Black",0,"BODY","No"
"PUG","MALE","Brown",3,"HEAD","Yes"
"CHICHAUHUA","MALE","Black",0,"BODY","No"
"CHICHAUHUA","MALE","White",1,"BODY","Yes"
"CHICHAUHUA","MALE","White",0,"BODY","No"
"PIT BULL","FEMALE","Brown",3,"BODY","Yes"
"GREAT PYRENEESE","FEMALE","White",1,"BODY","Yes"
"GERM SHEPHERD","MALE","Black",0,"BODY","Yes"
"LABRADOR RETRIV","FEMALE","Black",1,"BODY","Yes"
"LABRADOR RETRIV","FEMALE","Tan",3,"BODY","Yes"
"SHAR-PEI","FEMALE","Brown",0,"HEAD","No"
"WESTIE","MALE","White",1,"BODY","Yes"
"PIT BULL","FEMALE","Brindle",0,"BODY","Yes"
"BOXER","MALE","White",0,"BODY","Yes"
"SHIH TZU","FEMALE","White",1,"BODY","Yes"
"PIT BULL","MALE","Black",0,"BODY","No"
"LABRADOR RETRIV","MALE","Black",1,"HEAD","Yes"
"PIT BULL","FEMALE","Black",1,"BODY","Yes"
"SHIH TZU","MALE","Black",0,"BODY","Yes"
"PIT BULL","MALE","White",1,"BODY","Yes"
"SCOTTISH TER.","MALE","Black",0,"BODY","No"
"PIT BULL","MALE","White",0,"BODY","No"
"BULL DOG","MALE","Black",3,"BODY","Yes"
"SHAR-PEI","FEMALE","Tan",0,"BODY","No"
"PIT BULL","FEMALE","Brown",0,"BODY","No"
"BLACK LAB","FEMALE","Black",1,"HEAD","Yes"
"AAUST. TERR.","MALE","Black",1,"BODY","Yes"
"COCKER SPAINEL","MALE","White",3,"BODY","Yes"
"GERM SHEPHERD","MALE","Black",0,"BODY","Yes"
"BEAGLE","FEMALE","Black",1,"BODY","Yes"
"BOXER","MALE","Brindle",1,"BODY","Yes"
"BULL DOG","FEMALE","Brown",1,"BODY","Yes"
"PIT BULL","MALE","Black",0,"BODY","No"
"CHOW CHOW","MALE","Red",1,"BODY","Yes"
"CHOW CHOW","MALE","Black",0,"BODY","No"
"LABRADOR RETRIV","MALE","Black",1,"BODY","Yes"
"WESTIE","MALE","White",3,"HEAD","Yes"
"PIT BULL","MALE","Gray",0,"HEAD","No"
"BOXER","FEMALE","Brindle",1,"BODY","Yes"
"BEAGLE","MALE","Black",1,"BODY","Yes"
"ENGLISH SETTER","MALE","White",3,"BODY","Yes"
"POODLE","FEMALE","Black",1,"BODY","Yes"
"SHIH TZU","FEMALE","White",0,"BODY","Yes"
"PIT BULL","FEMALE","White",1,"BODY","Yes"
"PIT BULL","FEMALE","White",1,"BODY","Yes"
"PIT BULL","MALE","White",1,"BODY","Yes"
"HUSKY","MALE","Tan",1,"BODY","Yes"
"PIT BULL","FEMALE","Black",1,"BODY","Yes"
"MALTASE","MALE","White",0,"BODY","No"
"GERM SHEPHERD","MALE","Black",1,"BODY","Yes"
"PIT BULL","MALE","Black",1,"BODY","Yes"
"POMERANIAN","MALE","White",3,"BODY","Yes"
"LABRADOR RETRIV","MALE","Black",3,"HEAD","Yes"
"ENGLISH BULLDOG","FEMALE","Tan",3,"HEAD","Yes"
"AAUST. TERR.","MALE","Black",1,"HEAD","Yes"
"DOBERMAN","MALE","Black",0,"HEAD","No"
"LABRADOR RETRIV","MALE","Black",0,"BODY","Yes"
"POODLE","MALE","Black",0,"BODY","No"
"PIT BULL","MALE","Brindle",0,"HEAD","No"
"PIT BULL","MALE","White",0,"HEAD","No"
"POMERANIAN","FEMALE","Brown",1,"BODY","Yes"
"AKITA","MALE","White",1,"BODY","Yes"
"CHICHAUHUA","MALE","Brown",0,"BODY","No"
"CHICHAUHUA","FEMALE","White",3,"BODY","Yes"
"BORDER COLLIE","MALE","Black",1,"HEAD","Yes"
"LABRADOR RETRIV","MALE","White",0,"BODY","Yes"
"BULLMASTIFF","MALE","Brown",1,"HEAD","Yes"
"PIT BULL","FEMALE","Brindle",1,"BODY","Yes"
"BORDER COLLIE M","FEMALE","Black",0,"HEAD","No"
"ROTTWEILER","MALE","Black",0,"HEAD","Yes"
"DACHSHUND","MALE","Red",1,"HEAD","Yes"
"POODLE","FEMALE","White",1,"BODY","Yes"
"POODLE","MALE","Tan",1,"BODY","Yes"
"PIT BULL","MALE","Brown",0,"BODY","No"
"BOSTON TERRIER","FEMALE","Black",1,"HEAD","Yes"
"HUSKY","FEMALE","Tan",1,"HEAD","Yes"
"SHIH TZU","FEMALE","Black",1,"BODY","Yes"
"PIT BULL","MALE","White",1,"BODY","Yes"
"PIT BULL","MALE","Tan",0,"BODY","No"
"ROTTWEILER","MALE","Black",0,"HEAD","No"
"PIT BULL","MALE","White",1,"BODY","Yes"
"GERM SHEPHERD","FEMALE","Black",1,"BODY","Yes"
"PIT BULL","MALE","White",1,"BODY","Yes"
"YORKSHIRE TERRIER","MALE","Brown",0,"BODY","No"
"BOXER","FEMALE","Brindle",1,"HEAD","Yes"
"PIT BULL","MALE","White",0,"BODY","No"
"DACHSHUND","FEMALE","Brown",1,"BODY","Yes"
"DOTSON","MALE","Black",0,"BODY","No"
"POMERANIAN","MALE","Black",0,"BODY","No"
"GERM SHEPHERD","FEMALE","White",0,"BODY","No"
"GREAT PYRENEESE","FEMALE","White",0,"BODY","No"
"BOXER","MALE","Brown",0,"HEAD","No"
"POODLE","MALE","White",0,"BODY","No"
"HUSKY","FEMALE","White",0,"HEAD","No"
"PIT BULL","FEMALE","White",0,"BODY","Yes"
"SCHNAUZER","FEMALE","Gray",0,"BODY","Yes"
"CHICHAUHUA","FEMALE","Black",0,"HEAD","No"
"GERM SHEPHERD","MALE","Tan",0,"BODY","No"
"COON HOUND","MALE","Red",0,"HEAD","No"
"BULLMASTIFF","MALE","Brindle",1,"BODY","Yes"
"AKITA","MALE","Black",1,"BODY","Yes"
"MASTIF","MALE","Brindle",0,"BODY","Yes"
"COON HOUND","FEMALE","Tan",1,"BODY","Yes"
"COCKAPOO","MALE","Black",3,"HEAD","Yes"
"PIT BULL","FEMALE","White",1,"HEAD","Yes"
"SCHNAUZER","MALE","Black",1,"HEAD","Yes"
"ROTTWEILER","MALE","Black",1,"HEAD","Yes"
"SAMOYED","MALE","White",1,"BODY","Yes"
"PIT BULL","MALE","Brown",0,"HEAD","No"
"PIT BULL","MALE","White",3,"BODY","Yes"
"PIT BULL","FEMALE","Black",0,"BODY","No"
"YORKSHIRE TERRIER","MALE","Tan",1,"HEAD","Yes"
"PIT BULL","MALE","Brindle",0,"BODY","No"
"DACHSHUND","MALE","Red",1,"BODY","Yes"
"BOX TERRIER","MALE","Brindle",0,"BODY","No"
"PIT BULL","MALE","Brindle",0,"BODY","No"
"DACHSHUND","MALE","Black",0,"BODY","No"
"ROTTWEILER","MALE","Black",1,"HEAD","Yes"
"PIT BULL","MALE","Black",0,"BODY","No"
"BOXER","FEMALE","White",1,"BODY","Yes"
"PIT BULL","FEMALE","White",1,"BODY","Yes"
"POODLE","MALE","Black",0,"BODY","No"
"SCHNAUZER","FEMALE","Black",1,"HEAD","Yes"
"GERM SHEPHERD","MALE","White",1,"BODY","Yes"
"AKITA","MALE","Black",0,"BODY","No"
"ENGLISH BULLDOG","MALE","White",1,"BODY","Yes"
"PIT BULL","FEMALE","White",0,"BODY","No"
"PIT BULL","FEMALE","Brown",0,"HEAD","No"
"DACHSHUND","FEMALE","Brown",1,"HEAD","Yes"
"GERM SHEPHERD","MALE","Brown",0,"BODY","No"
"PIT BULL","MALE","Black",0,"BODY","No"
"SCHNAUZER","FEMALE","Gray",0,"BODY","No"
"DOBERMAN","MALE","Black",3,"BODY","Yes"
"LABRADOR RETRIV","FEMALE","Black",0,"BODY","Yes"
"MALTASE","MALE","White",3,"BODY","Yes"
"ROTTWEILER","FEMALE","White",0,"BODY","Yes"
"PIT BULL","MALE","White",0,"BODY","No"
"DACHSHUND","FEMALE","Black",0,"BODY","Yes"
"AAUST. TERR.","FEMALE","Black",0,"HEAD","Yes"
"SHIH TZU","MALE","Black",0,"BODY","No"
"LABRADOR RETRIV","MALE","Tan",1,"HEAD","Yes"
"SHIH TZU","MALE","White",3,"BODY","Yes"
"BORDER COLLIE","MALE","Black",3,"BODY","Yes"
"ENGLISH BULLDOG","MALE","Brown",0,"BODY","No"
"LABRADOR RETRIV","MALE","Black",0,"BODY","Yes"
"GERM SHEPHERD","MALE","Black",0,"BODY","Yes"
"CHICHAUHUA","MALE","Black",1,"BODY","Yes"
"AAUST. TERR.","MALE","Gray",0,"BODY","Yes"
"MIN PIN","MALE","Black",0,"BODY","No"
"MALTASE","MALE","White",1,"BODY","Yes"
"GERM SHEPHERD","FEMALE","Black",3,"BODY","Yes"
"PIT BULL","FEMALE","White",0,"BODY","No"
"CANE CORSO","MALE","Brown",0,"BODY","No"
"CHICHAUHUA","FEMALE","White",0,"BODY","No"
"BEAGLE","MALE","Red",1,"BODY","Yes"
"CHICHAUHUA","MALE","Black",1,"BODY","Yes"
"CHICHAUHUA","MALE","White",1,"BODY","Yes"
"PIT BULL","MALE","Gray",0,"HEAD","No"
"SHIH TZU","FEMALE","White",1,"BODY","Yes"
"SHAR-PEI","MALE","Tan",1,"BODY","Yes"
"AMER. BULL DOG","MALE","White",0,"BODY","No"
"SHIH TZU","FEMALE","White",1,"HEAD","Yes"
"PIT BULL","MALE","Black",0,"BODY","No"
"SHIH TZU","FEMALE","White",0,"BODY","No"
"BOXER","FEMALE","White",1,"BODY","Yes"
"SAINT BERNARD","MALE","White",1,"BODY","Yes"
"PIT BULL","MALE","Red",0,"BODY","No"
"BLUE HEELER","MALE","Black",3,"HEAD","Yes"
"CHICHAUHUA","FEMALE","White",0,"BODY","Yes"
"POODLE","MALE","White",1,"BODY","Yes"
"COCKER SPAINEL","MALE","Brown",1,"BODY","Yes"
"PIT BULL","MALE","White",0,"BODY","No"
"PIT BULL","MALE","Black",1,"BODY","Yes"
"ENGLISH SHEPARD","FEMALE","Black",1,"BODY","Yes"
"DOBERMAN","MALE","Black",3,"HEAD","Yes"
"BORDER COLLIE M","FEMALE","White",1,"BODY","Yes"
"PIT BULL","FEMALE","Black",3,"BODY","Yes"
"BEAGLE","FEMALE","Brown",1,"BODY","Yes"
"PIT BULL","FEMALE","Red",0,"BODY","Yes"
"MIN PIN","MALE","Black",1,"BODY","Yes"
"PIT BULL","MALE","Brindle",3,"BODY","Yes"
"POODLE","MALE","White",3,"BODY","Yes"
"PIT BULL","MALE","Black",1,"HEAD","Yes"
"GERM SHEPHERD","MALE","Brown",1,"BODY","Yes"
"PIT BULL","MALE","White",1,"BODY","Yes"
"PIT BULL","FEMALE","Tan",0,"BODY","No"
"PIT BULL","MALE","Gray",0,"BODY","No"
"GREAT PYRENEESE","MALE","White",1,"BODY","Yes"
"GERM SHEPHERD","MALE","Black",0,"BODY","No"
"PIT BULL","MALE","White",0,"BODY","Yes"
"PIT BULL","MALE","White",0,"BODY","No"
"PIT BULL","MALE","White",0,"BODY","Yes"
"ALASK. MALAMUTE","MALE","Gray",0,"BODY","No"
"SHIH TZU","MALE","Black",3,"BODY","Yes"
"CHICHAUHUA","MALE","Tan",1,"BODY","Yes"
"SAINT BERNARD","MALE","Tan",1,"HEAD","Yes"
"ROTTWEILER","MALE","Black",0,"BODY","No"
"PIT BULL","MALE","White",0,"BODY","No"
"AM BULLDOG","MALE","White",1,"HEAD","Yes"
"ROTTWEILER","MALE","Black",0,"BODY","No"
"BULL DOG","MALE","Red",1,"BODY","Yes"
"PIT BULL","MALE","White",1,"HEAD","Yes"
"BORDER COLLIE","FEMALE","Black",0,"HEAD","No"
"PIT BULL","MALE","White",1,"BODY","Yes"
"CANE CORSO","MALE","Gray",1,"BODY","Yes"
"GERM SHEPHERD","FEMALE","Black",0,"BODY","No"
"LABRADOR RETRIV","MALE","Black",3,"BODY","Yes"
"PIT BULL","FEMALE","White",0,"BODY","No"
"DACHSHUND","MALE","Brown",3,"BODY","Yes"
"GERM SHEPHERD","FEMALE","Black",1,"BODY","Yes"
"BLOOD HOUND","MALE","Black",0,"BODY","Yes"
"MALTASE","FEMALE","White",0,"BODY","No"
"CHICHAUHUA","MALE","Black",1,"HEAD","Yes"
"CHICHAUHUA","FEMALE","Black",1,"BODY","Yes"
"ROTTWEILER","MALE","Black",1,"BODY","Yes"
"BOSTON TERRIER","FEMALE","Black",1,"BODY","Yes"
"PIT BULL","MALE","White",0,"BODY","No"
"ROTTWEILER","MALE","Black",0,"BODY","No"
"PIT BULL","MALE","White",1,"BODY","Yes"
"BOXER","MALE","Tan",3,"BODY","Yes"
"FOX TERRIER","FEMALE","White",1,"BODY","Yes"
"PIT BULL","MALE","Black",0,"BODY","No"
"PIT BULL","FEMALE","White",0,"BODY","No"
"BRITNEY SPANIEL","FEMALE","White",1,"HEAD","Yes"
"WESTIE","FEMALE","White",3,"BODY","Yes"
"LABRADOR RETRIV","MALE","Black",1,"HEAD","Yes"
"GREAT DANE","MALE","Black",3,"BODY","Yes"
"PUG","MALE","Tan",0,"BODY","Yes"
"PIT BULL","MALE","White",0,"BODY","No"
"PIT BULL","FEMALE","Brown",0,"HEAD","No"
"PIT BULL","FEMALE","Brown",0,"BODY","No"
"PIT BULL","FEMALE","White",0,"BODY","No"
"BEAGLE","MALE","White",1,"BODY","Yes"
"GERM SHEPHERD","MALE","Gray",3,"BODY","Yes"
"PIT BULL","FEMALE","Tan",0,"HEAD","Yes"
"GERM SHEPHERD","FEMALE","Black",1,"BODY","Yes"
"GERM SHEPHERD","FEMALE","Black",1,"BODY","Yes"
"PIT BULL","MALE","White",1,"BODY","Yes"
"PIT BULL","FEMALE","Black",1,"BODY","Yes"
"PIT BULL","MALE","Black",0,"BODY","No"
"DOBERMAN","MALE","Black",0,"HEAD","No"
"PIT BULL","MALE","White",0,"HEAD","No"
"ENGLISH BULLDOG","MALE","Brindle",0,"BODY","No"
"LABRADOR RETRIV","FEMALE","Black",1,"BODY","Yes"
"GERM SHEPHERD","MALE","Black",0,"BODY","No"
"PIT BULL","MALE","Brown",0,"BODY","No"
"ENGLISH SETTER","MALE","Red",0,"BODY","Yes"
"CHICHAUHUA","MALE","Tan",0,"BODY","Yes"
"YORKSHIRE TERRIER","FEMALE","Brown",1,"BODY","Yes"
"CHICHAUHUA","MALE","Tan",3,"BODY","Yes"
"PUG","FEMALE","Black",0,"BODY","No"
"COCKER SPAINEL","MALE","Tan",1,"BODY","Yes"
"CATTLE DOG","MALE","Brown",0,"BODY","No"
"CHICHAUHUA","MALE","Brown",1,"BODY","Yes"
"FRENCH BULLDOG","FEMALE","Black",0,"BODY","Yes"
"BASANJI","MALE","White",3,"BODY","Yes"
"BULLMASTIFF","MALE","Brindle",1,"HEAD","Yes"
"CHICHAUHUA","MALE","Black",3,"BODY","Yes"
"CHICHAUHUA","MALE","Black",0,"BODY","No"
"PIT BULL","MALE","Brindle",0,"BODY","Yes"
"BOXER","MALE","Brown",0,"HEAD","No"
"PIT BULL","MALE","White",1,"BODY","Yes"
"DACHSHUND","MALE","Black",1,"BODY","Yes"
"PIT BULL","MALE","Brown",3,"BODY","Yes"
"PIT BULL","MALE","Black",1,"BODY","Yes"
"PIT BULL","MALE","White",0,"BODY","No"
"CHOW CHOW","MALE","Black",3,"BODY","Yes"
"DOBERMAN","MALE","Black",1,"BODY","Yes"
"GERM SHEPHERD","MALE","Black",1,"BODY","Yes"
"MALTASE","MALE","Black",1,"BODY","Yes"
"CHICHAUHUA","MALE","Black",0,"BODY","No"
"BASSET HOUND","MALE","White",1,"HEAD","Yes"
"PIT BULL","FEMALE","Brown",0,"BODY","No"
"AMER. BULL DOG","MALE","White",3,"BODY","Yes"
"WESTIE","MALE","White",3,"BODY","Yes"
"PIT BULL","FEMALE","Gray",0,"HEAD","No"
"DOTSON","MALE","Black",3,"BODY","Yes"
"LABRADOR RETRIV","MALE","Black",1,"HEAD","Yes"
"DACHSHUND","MALE","Red",3,"BODY","Yes"
"GERM SHEPHERD","FEMALE","Black",3,"BODY","Yes"
"PIT BULL","FEMALE","Brown",1,"BODY","Yes"
"BOXER","FEMALE","Black",0,"BODY","No"
"PIT BULL","MALE","White",1,"BODY","Yes"
"PIT BULL","FEMALE","White",0,"BODY","Yes"
"SHIH TZU","FEMALE","White",0,"BODY","No"
"AKITA","MALE","White",1,"BODY","Yes"
"POMERANIAN","FEMALE","White",1,"HEAD","Yes"
"GERM SHEPHERD","MALE","White",1,"BODY","Yes"
"AAUST. TERR.","MALE","Black",1,"BODY","Yes"
"PIT BULL","MALE","Brindle",1,"HEAD","Yes"
"MASTIF","MALE","Black",0,"BODY","No"
"BOSTON TERRIER","MALE","Black",3,"BODY","Yes"
"CHICHAUHUA","FEMALE","Brown",1,"BODY","Yes"
"SHIH TZU","MALE","White",0,"BODY","No"
"YORKSHIRE TERRIER","MALE","Black",1,"BODY","Yes"
"GERM SHEPHERD","MALE","Tan",1,"BODY","Yes"
"PIT BULL","MALE","White",0,"BODY","No"
"BORDER COLLIE","FEMALE","Black",0,"BODY","No"
"PIT BULL","MALE","Brown",1,"BODY","Yes"
"PIT BULL","MALE","Black",1,"HEAD","Yes"
"PIT BULL","MALE","Gray",0,"HEAD","No"
"CHICHAUHUA","MALE","Tan",1,"BODY","Yes"
"GERM SHEPHERD","FEMALE","Black",1,"HEAD","Yes"
"BOXER","FEMALE","White",0,"BODY","No"
"GERM SHEPHERD","MALE","Black",0,"BODY","No"
"LABRADOR RETRIV","MALE","Black",1,"BODY","Yes"
"AM BULLDOG","MALE","White",1,"BODY","Yes"
"LABRADOR RETRIV","MALE","Black",1,"HEAD","Yes"
"SCHNAUZER","MALE","Gray",1,"BODY","Yes"
"AM BULLDOG","MALE","White",0,"HEAD","No"
"YORKSHIRE TERRIER","FEMALE","Black",1,"BODY","Yes"
"AAUST. TERR.","MALE","White",1,"BODY","Yes"
"PIT BULL","MALE","Black",1,"BODY","Yes"
"CANE CORSO","FEMALE","Brindle",1,"BODY","Yes"
"PIT BULL","FEMALE","White",0,"BODY","No"
"PIT BULL","MALE","Brown",0,"BODY","No"
"AAUST. TERR.","FEMALE","Gray",0,"BODY","No"
"HUSKY","MALE","White",1,"BODY","Yes"
"PIT BULL","FEMALE","Tan",0,"BODY","No"
"AAUST. TERR.","MALE","Red",1,"BODY","Yes"
"GERM SHEPHERD","MALE","Black",0,"BODY","No"
"PIT BULL","FEMALE","White",0,"BODY","No"
"LABRADOR RETRIV","FEMALE","White",0,"HEAD","No"
"IRISH SETTER","FEMALE","Red",3,"HEAD","Yes"
"POMERANIAN","FEMALE","White",1,"HEAD","Yes"
"LABRADOR RETRIV","MALE","Black",1,"BODY","Yes"
"LHASA APSO","MALE","Gray",1,"BODY","Yes"
"RAT TERRIER","FEMALE","Black",3,"BODY","Yes"
"BLOOD HOUND","MALE","Black",1,"HEAD","Yes"
"LABRADOR RETRIV","MALE","Black",1,"BODY","Yes"
"BOXER","MALE","White",0,"BODY","No"
"YORKSHIRE TERRIER","FEMALE","Black",0,"BODY","No"
"SCHNAUZER","FEMALE","Gray",3,"BODY","Yes"
"LABRADOR RETRIV","MALE","Brown",0,"HEAD","No"
"GOLD RETRIEVER","MALE","Brown",3,"HEAD","Yes"
"DACHSHUND","FEMALE","Black",1,"HEAD","No"
"PIT BULL","MALE","Black",1,"BODY","Yes"
"BOXER","MALE","White",1,"BODY","Yes"
"PIT BULL","MALE","Black",0,"BODY","Yes"
"BLACK LAB","FEMALE","Black",0,"BODY","Yes"
"GREYHOUND","MALE","Brindle",1,"HEAD","Yes"
"CHICHAUHUA","MALE","Tan",1,"BODY","Yes"
"PIT BULL","MALE","White",1,"HEAD","Yes"
"GERM SHEPHERD","MALE","Black",3,"BODY","Yes"
"BOXER","MALE","Brindle",0,"BODY","Yes"
"PIT BULL","FEMALE","White",1,"BODY","Yes"
"PIT BULL","MALE","Brindle",1,"BODY","Yes"
"GERM SHEPHERD","MALE","Black",1,"BODY","Yes"
"BLOOD HOUND","FEMALE","Red",1,"BODY","Yes"
"ENGLISH SHEPARD","MALE","Black",1,"BODY","Yes"
"PIT BULL","FEMALE","White",1,"BODY","Yes"
"BULL DOG","MALE","Black",0,"BODY","No"
"PIT BULL","MALE","Tan",0,"BODY","No"
"COCKER SPAINEL","MALE","Black",0,"BODY","Yes"
"BASSET HOUND","MALE","White",3,"HEAD","Yes"
"SHIH TZU","MALE","Black",1,"HEAD","Yes"
"BOSTON TERRIER","MALE","Black",1,"BODY","Yes"
"SCHNAUZER","MALE","Brown",0,"HEAD","No"
"ROTTWEILER","MALE","Black",0,"BODY","No"
"BULL DOG","MALE","Black",0,"BODY","No"
"COCKER SPAINEL","FEMALE","White",0,"BODY","No"
"DACHSHUND","MALE","Black",1,"BODY","Yes"
"BOXER","FEMALE","Brindle",1,"HEAD","Yes"
"GREAT DANE","MALE","Black",3,"BODY","Yes"
"GERM SHEPHERD","MALE","Black",1,"BODY","Yes"
"PIT BULL","MALE","Brindle",0,"BODY","No"
"CHICHAUHUA","MALE","Brown",0,"BODY","No"
"PIT BULL","FEMALE","White",0,"BODY","No"
"SIBERAN HUSKY","MALE","Brown",1,"HEAD","Yes"
"BOXER","MALE","Brindle",3,"BODY","Yes"
"PIT BULL","MALE","Black",0,"BODY","No"
"BLACK LAB","MALE","Black",0,"BODY","No"
"PIT BULL","MALE","White",0,"BODY","No"
"PIT BULL","FEMALE","Brindle",1,"BODY","Yes"
"GERM SHEPHERD","MALE","Brown",1,"HEAD","Yes"
"PIT BULL","MALE","Black",0,"BODY","Yes"
"GREAT DANE","FEMALE","Black",1,"BODY","Yes"
"PIT BULL","MALE","Brindle",0,"BODY","No"
"PIT BULL","MALE","White",0,"BODY","No"
"PIT BULL","FEMALE","White",0,"BODY","No"
"PIT BULL","FEMALE","Tan",0,"BODY","No"
"LABRADOR RETRIV","MALE","White",3,"HEAD","Yes"
"HUSKY","FEMALE","Black",1,"HEAD","Yes"
"DOTSON","MALE","Black",1,"BODY","Yes"
"BOXER","FEMALE","White",1,"BODY","Yes"
"GREAT PYRENEESE","MALE","White",1,"HEAD","Yes"
"BLUE HEELER","MALE","Black",0,"HEAD","No"
"BOXER","MALE","White",1,"BODY","Yes"
"PIT BULL","FEMALE","White",1,"BODY","Yes"
"SHAR-PEI","FEMALE","White",1,"BODY","Yes"
"LABRADOR RETRIV","FEMALE","White",0,"HEAD","No"
"PIT BULL","MALE","White",1,"BODY","Yes"
"SCHNAUZER","FEMALE","White",0,"BODY","No"
"PIT BULL","MALE","Black",1,"BODY","Yes"
"BLACK LAB","MALE","Black",0,"BODY","Yes"
"BASANJI","FEMALE","Black",1,"BODY","Yes"
"COCKER SPAINEL","MALE","White",0,"BODY","No"
"AAUST. TERR.","FEMALE","White",0,"BODY","No"
"CHOW CHOW","FEMALE","Black",0,"HEAD","No"
"BLUE HEELER","FEMALE","White",0,"HEAD","No"
"POODLE","FEMALE","Black",3,"BODY","Yes"
"GERM SHEPHERD","FEMALE","Black",1,"BODY","Yes"
"BOX TERRIER","MALE","White",1,"BODY","Yes"
"GERM SHEPHERD","MALE","White",1,"BODY","Yes"
"LABRADOR RETRIV","MALE","Brown",0,"BODY","Yes"
"PIT BULL","MALE","White",0,"BODY","No"
"PIT BULL","MALE","Brown",0,"BODY","No"
"SHIH TZU","MALE","White",3,"HEAD","Yes"
"SHIH TZU","MALE","Black",1,"HEAD","Yes"
"DACHSHUND","FEMALE","Black",1,"BODY","Yes"
"CHICHAUHUA","MALE","White",1,"BODY","Yes"
"LABRADOR RETRIV","FEMALE","Black",0,"HEAD","No"
"PUG","MALE","Black",0,"BODY","Yes"
"CHICHAUHUA","FEMALE","White",0,"BODY","Yes"
"CANE CORSO","FEMALE","Brown",0,"BODY","No"
"ALASK. MALAMUTE","MALE","White",0,"BODY","No"
"SHIH TZU","FEMALE","Tan",3,"BODY","Yes"
"PIT BULL","FEMALE","Brown",1,"BODY","Yes"
"PIT BULL","FEMALE","White",1,"BODY","Yes"
"HAVANESE","FEMALE","White",0,"BODY","Yes"
"PIT BULL","MALE","Brown",1,"BODY","Yes"
"PIT BULL","MALE","White",0,"BODY","No"
"LABRADOR RETRIV","MALE","Brown",3,"BODY","Yes"
"BLACK LAB","FEMALE","Black",1,"BODY","Yes"
"BRIARD","FEMALE","Tan",3,"BODY","Yes"
"PIT BULL","MALE","Black",0,"HEAD","Yes"
"BEAGLE","FEMALE","White",3,"BODY","Yes"
"SHAR-PEI","FEMALE","Brown",0,"BODY","No"
"AAUST. TERR.","MALE","Black",0,"BODY","No"
"GERM SHEPHERD","MALE","Brindle",0,"BODY","Yes"
"SHIH TZU","MALE","White",1,"BODY","Yes"
"SCOTTISH TER.","MALE","Brindle",3,"BODY","Yes"
"SHIH TZU","MALE","White",1,"BODY","Yes"
"PIT BULL","FEMALE","White",0,"BODY","No"
"BOXER","FEMALE","Brindle",1,"BODY","Yes"
"BEAGLE","MALE","White",1,"BODY","Yes"
"CHOW CHOW","MALE","Black",0,"BODY","No"
"SHIH TZU","FEMALE","Gray",0,"BODY","No"
"PIT BULL","MALE","White",0,"BODY","Yes"
"LABRADOR RETRIV","MALE","Brown",1,"BODY","Yes"
"ENG. MASTIFF","FEMALE","Black",3,"HEAD","Yes"
"SHIH TZU","MALE","Brown",1,"BODY","Yes"
"HAVANESE","MALE","White",3,"HEAD","Yes"
"LABRADOR RETRIV","MALE","Black",1,"HEAD","Yes"
"NEW FOUNDLAND","MALE","Black",1,"BODY","Yes"
"PIT BULL","FEMALE","Tan",1,"BODY","Yes"
"CHOW CHOW","MALE","Brown",3,"BODY","Yes"
"MALTASE","MALE","White",0,"BODY","No"
"BORDER COLLIE M","FEMALE","Black",1,"BODY","Yes"
"SHIH TZU","MALE","Brown",0,"HEAD","No"
"LABRADOR RETRIV","FEMALE","Brown",1,"BODY","Yes"
"PIT BULL","MALE","Brown",0,"BODY","No"
"DALMATIAN","FEMALE","Black",0,"HEAD","No"
"GERM SHEPHERD","MALE","Brown",0,"BODY","No"
"MASTIF","FEMALE","Black",1,"BODY","Yes"
"PIT BULL","MALE","Brindle",1,"BODY","Yes"
"CHICHAUHUA","MALE","Black",3,"BODY","Yes"
"COON HOUND","MALE","White",3,"BODY","Yes"
"CHOW CHOW","FEMALE","White",1,"BODY","Yes"
"PIT BULL","MALE","Gray",1,"BODY","Yes"
"PIT BULL","MALE","White",0,"BODY","No"
"PIT BULL","MALE","Brindle",0,"BODY","Yes"
"POODLE","MALE","Black",1,"BODY","Yes"
"PIT BULL","MALE","Brindle",1,"BODY","Yes"
"AAUST. TERR.","FEMALE","Black",0,"BODY","No"
"BORDER COLLIE","FEMALE","Black",1,"BODY","Yes"
"PIT BULL","FEMALE","White",3,"BODY","Yes"
"ST BERNARD","MALE","White",1,"HEAD","Yes"
"PIT BULL","MALE","Black",1,"BODY","Yes"
"COLLIE","MALE","White",1,"BODY","Yes"
"GERM SHEPHERD","MALE","Black",0,"HEAD","No"
"PIT BULL","MALE","White",0,"BODY","No"
"PIT BULL","FEMALE","White",1,"BODY","Yes"
"PIT BULL","FEMALE","Black",0,"BODY","No"
"PIT BULL","MALE","Black",1,"BODY","Yes"
"PIT BULL","FEMALE","White",1,"BODY","Yes"
"PIT BULL","FEMALE","Black",0,"BODY","No"
"CHICHAUHUA","MALE","White",0,"BODY","No"
"YORKSHIRE TERRIER","MALE","Gray",0,"BODY","No"
"BLACK LAB","FEMALE","Black",1,"BODY","Yes"
"SAMOYED","MALE","White",3,"BODY","Yes"
"GERM SHEPHERD","MALE","Brown",1,"BODY","Yes"
"BLUE HEELER","MALE","Black",1,"BODY","Yes"
"BOXER","FEMALE","White",1,"HEAD","Yes"
"BOXER","FEMALE","White",1,"BODY","Yes"
"GERM SHEPHERD","MALE","Black",1,"BODY","Yes"
"RAT TERRIER","MALE","Black",1,"BODY","Yes"
"BOXER","MALE","Brindle",0,"BODY","No"
"CANE CORSO","MALE","Brindle",1,"HEAD","Yes"
"FRENCH BULLDOG","MALE","White",1,"HEAD","Yes"
"CHOW CHOW","FEMALE","Brown",1,"HEAD","Yes"
"DOTSON","FEMALE","Red",1,"BODY","Yes"
"AAUST. TERR.","MALE","Red",1,"BODY","Yes"
"ROTTWEILER","MALE","Brown",0,"BODY","No"
"AAUST. TERR.","MALE","Brown",3,"BODY","Yes"
"COLLIE","FEMALE","White",1,"BODY","Yes"
"PIT BULL","MALE","Brindle",1,"BODY","Yes"
"GERM SHEPHERD","MALE","Brown",1,"HEAD","Yes"
"PIT BULL","MALE","White",3,"BODY","Yes"
"PIT BULL","MALE","White",0,"BODY","No"
"PIT BULL","MALE","Brown",1,"BODY","Yes"
"BOXER","MALE","Brown",3,"BODY","Yes"
"SIBERAN HUSKY","MALE","White",0,"BODY","No"
"PIT BULL","FEMALE","White",0,"BODY","No"
"LABRADOR RETRIV","FEMALE","Black",3,"HEAD","Yes"
"BOXER","FEMALE","White",0,"BODY","No"
"GERM SHEPHERD","MALE","Black",1,"BODY","Yes"
"SHIH TZU","MALE","Black",1,"BODY","Yes"
"GERM SHEPHERD","FEMALE","Black",0,"BODY","Yes"
"LABRADOR RETRIV","MALE","Black",1,"BODY","Yes"
"AAUST. TERR.","FEMALE","Black",3,"BODY","Yes"
"BOXER","MALE","White",0,"HEAD","No"
"CHICHAUHUA","MALE","Black",0,"BODY","No"
"COLLIE","MALE","Black",1,"HEAD","Yes"
"HUSKY","FEMALE","White",3,"BODY","Yes"
"PIT BULL","FEMALE","Brown",1,"BODY","Yes"
"ENGLISH BULLDOG","FEMALE","White",1,"BODY","Yes"
"PIT BULL","FEMALE","White",1,"BODY","Yes"
"BEAGLE","FEMALE","Black",3,"BODY","Yes"
"SCHNAUZER","MALE","Brown",1,"BODY","Yes"
"AAUST. TERR.","MALE","Brindle",1,"BODY","Yes"
"YORKSHIRE TERRIER","FEMALE","Gray",0,"BODY","No"
"GERM SHEPHERD","MALE","White",3,"BODY","Yes"
"BEAGLE","FEMALE","Black",3,"BODY","Yes"
"GERM SHEPHERD","MALE","Brown",1,"BODY","Yes"
"BEAGLE","MALE","Black",0,"BODY","No"
"BOXER","MALE","Red",0,"HEAD","No"
"PIT BULL","MALE","Black",0,"BODY","Yes"
"PIT BULL","FEMALE","Black",1,"HEAD","Yes"
"AAUST. TERR.","MALE","Red",1,"BODY","Yes"
"PIT BULL","MALE","White",1,"BODY","Yes"
"PIT BULL","FEMALE","White",0,"BODY","No"
"GERM SHEPHERD","MALE","Black",3,"BODY","Yes"
"BOXER","FEMALE","Black",0,"BODY","No"
"BASSET HOUND","FEMALE","Tan",1,"BODY","Yes"
"CHOW CHOW","MALE","Brown",1,"BODY","Yes"
"BOXER","FEMALE","White",1,"BODY","Yes"
"GERM SHEPHERD","FEMALE","Black",0,"BODY","No"
"PIT BULL","FEMALE","White",1,"HEAD","Yes"
"PUG","FEMALE","Brown",1,"HEAD","Yes"
"BLACK LAB","MALE","Black",1,"HEAD","Yes"
"BEAGLE","FEMALE","Red",1,"BODY","Yes"
"RAT TERRIER","FEMALE","Brindle",1,"BODY","Yes"
"PIT BULL","MALE","Brindle",0,"HEAD","No"
"BOXER","FEMALE","Brindle",1,"BODY","Yes"
"PIT BULL","FEMALE","Brown",1,"BODY","Yes"
"AAUST. TERR.","FEMALE","Brindle",1,"BODY","Yes"
"ROTTWEILER","MALE","Black",1,"BODY","Yes"
"PIT BULL","FEMALE","Black",1,"BODY","Yes"
"PIT BULL","MALE","Brindle",1,"BODY","Yes"
"CANE CORSO","MALE","Brindle",0,"HEAD","No"
"PIT BULL","MALE","White",0,"HEAD","No"
"GERM SHEPHERD","MALE","Brown",0,"BODY","No"
"PIT BULL","FEMALE","Black",1,"HEAD","Yes"
"GREAT PYRENEESE","MALE","Black",3,"HEAD","Yes"
"PIT BULL","MALE","White",1,"BODY","Yes"
"PIT BULL","MALE","Brown",0,"BODY","Yes"
"BLACK LAB","MALE","Black",0,"BODY","Yes"
"ENGLISH BULLDOG","MALE","Brindle",3,"HEAD","Yes"
"PIT BULL","MALE","White",1,"BODY","Yes"
"BOXER","MALE","Brown",3,"BODY","Yes"
"CANE CORSO","FEMALE","Gray",1,"BODY","Yes"
"PIT BULL","FEMALE","Brown",0,"BODY","No"
"BOXER","MALE","Black",1,"BODY","Yes"
"BICHON FRESE","MALE","White",1,"BODY","Yes"
"SHIH TZU","MALE","White",0,"HEAD","No"
"GERM SHEPHERD","FEMALE","Black",1,"BODY","Yes"
"BULL DOG","MALE","White",0,"BODY","No"
"PIT BULL","FEMALE","White",1,"BODY","Yes"
"CHOW CHOW","FEMALE","Red",0,"BODY","No"
"PIT BULL","MALE","Black",1,"HEAD","Yes"
"BLACK LAB","MALE","Black",1,"HEAD","Yes"
"PIT BULL","MALE","Red",1,"HEAD","Yes"
"ROTTWEILER","FEMALE","Black",3,"BODY","Yes"
"BOXER","MALE","Tan",3,"BODY","Yes"
"GERM SHEPHERD","MALE","Black",1,"BODY","Yes"
"LABRADOR RETRIV","MALE","Black",3,"BODY","Yes"
"GERM SHEPHERD","FEMALE","Gray",0,"HEAD","No"
"PIT BULL","FEMALE","Black",1,"BODY","Yes"
"AMER. BULL DOG","FEMALE","White",1,"BODY","Yes"
"YORKSHIRE TERRIER","MALE","White",0,"HEAD","No"
"ST BERNARD","FEMALE","White",1,"BODY","Yes"
"PIT BULL","FEMALE","White",1,"HEAD","Yes"
"CHICHAUHUA","MALE","Black",1,"BODY","Yes"
"PIT BULL","FEMALE","White",1,"BODY","Yes"
"BOXER","MALE","White",1,"BODY","Yes"
"PIT BULL","FEMALE","Tan",0,"BODY","Yes"
"CATAHOULA","FEMALE","White",3,"BODY","Yes"
"BEAGLE","MALE","Black",0,"BODY","Yes"
"MIN PIN","MALE","Tan",0,"BODY","No"
"LABRADOR RETRIV","FEMALE","Black",1,"BODY","Yes"
"GREAT PYRENEESE","MALE","White",1,"HEAD","Yes"
"GERM SHEPHERD","MALE","Black",1,"HEAD","Yes"
"PIT BULL","FEMALE","White",0,"BODY","No"
"GERM SHEPHERD","MALE","Black",3,"BODY","Yes"
"BASSET HOUND","MALE","Black",3,"BODY","Yes"
"PIT BULL","MALE","Black",3,"BODY","Yes"
"GERM SHEPHERD","MALE","Black",1,"BODY","Yes"
"DOTSON","FEMALE","Black",1,"HEAD","Yes"
"LABRADOR RETRIV","MALE","Black",0,"HEAD","No"
"CHICHAUHUA","FEMALE","Brindle",0,"BODY","No"
"CHICHAUHUA","FEMALE","Brown",0,"BODY","No"
"PIT BULL","FEMALE","Tan",0,"BODY","Yes"
"BOXER","MALE","Brindle",0,"BODY","Yes"
"AAUST. TERR.","MALE","Black",0,"BODY","Yes"
"GERM SHEPHERD","MALE","Black",3,"BODY","Yes"
"BOXER","MALE","White",1,"BODY","Yes"
"CHICHAUHUA","MALE","Black",0,"BODY","Yes"
"BORDER COLLIE","MALE","White",1,"HEAD","Yes"
"BOXER","MALE","White",1,"HEAD","Yes"
"PIT BULL","MALE","Black",0,"BODY","No"
"PIT BULL","FEMALE","Brindle",1,"BODY","Yes"
"LABRADOR RETRIV","MALE","Black",0,"BODY","No"
"GERM SHEPHERD","MALE","Black",1,"HEAD","Yes"
"YORKSHIRE TERRIER","FEMALE","Black",1,"BODY","Yes"
"BOXER","MALE","Black",1,"BODY","Yes"
"SHEEP DOG","FEMALE","White",1,"HEAD","Yes"
"PIT BULL","MALE","Brown",1,"HEAD","Yes"
"PIT BULL","MALE","Black",1,"BODY","Yes"
"AAUST. TERR.","MALE","Red",1,"BODY","Yes"
"PIT BULL","MALE","Brown",1,"BODY","Yes"
"CHICHAUHUA","FEMALE","Black",0,"BODY","Yes"
"PIT BULL","MALE","White",1,"BODY","Yes"
"AM BULLDOG","MALE","White",1,"BODY","Yes"
"CHICHAUHUA","MALE","Brown",0,"BODY","Yes"
"GERM SHEPHERD","FEMALE","Black",1,"BODY","Yes"
"TOY POODLE","MALE","Brown",1,"BODY","Yes"
"RAT TERRIER","MALE","Black",1,"BODY","Yes"
"GERM SHEPHERD","MALE","Black",0,"BODY","Yes"
"COLLIE","FEMALE","White",0,"BODY","No"
"PIT BULL","MALE","White",0,"HEAD","Yes"
"SIBERAN HUSKY","MALE","White",0,"BODY","No"
"PIT BULL","MALE","White",0,"BODY","No"
"SHIH TZU","FEMALE","White",0,"BODY","No"
"SHEEP DOG","FEMALE","White",0,"BODY","No"
"PIT BULL","FEMALE","Black",1,"BODY","Yes"
"PIT BULL","MALE","Brown",0,"HEAD","No"
"AMER. BULL DOG","MALE","Black",0,"BODY","No"
"LABRADOR RETRIV","MALE","Gray",1,"BODY","Yes"
"LABRADOR RETRIV","MALE","Black",1,"BODY","Yes"
"CANE CORSO","MALE","Gray",1,"BODY","Yes"
"PIT BULL","MALE","Black",0,"BODY","No"
"PIT BULL","MALE","Gray",0,"BODY","No"
"PIT BULL","MALE","White",0,"BODY","No"
"BOXER","FEMALE","White",3,"BODY","Yes"
"PIT BULL","FEMALE","Brindle",0,"BODY","No"
"PIT BULL","MALE","White",0,"BODY","No"
"LABRADOR RETRIV","MALE","Black",1,"BODY","Yes"
"GERM SHEPHERD","MALE","Tan",3,"BODY","Yes"
"GERM SHEPHERD","MALE","Black",0,"BODY","No"
"GERM SHEPHERD","FEMALE","Brown",3,"BODY","Yes"
"CHICHAUHUA","MALE","Black",1,"BODY","Yes"
"CHICHAUHUA","MALE","Brown",0,"BODY","Yes"
"PIT BULL","MALE","Gray",1,"BODY","Yes"
"SIBERAN HUSKY","FEMALE","Tan",0,"HEAD","No"
"PIT BULL","MALE","Black",0,"BODY","No"
"SHIH TZU","MALE","White",1,"HEAD","Yes"
"BEAGLE","MALE","Brown",1,"HEAD","Yes"
"MASTIF","MALE","Black",0,"BODY","Yes"
"CANE CORSO","MALE","Brindle",1,"BODY","Yes"
"GERM SHEPHERD","MALE","Black",1,"BODY","Yes"
"PIT BULL","MALE","White",0,"BODY","No"
"PIT BULL","MALE","Gray",0,"BODY","No"
"PIT BULL","FEMALE","White",0,"BODY","Yes"
"DACHSHUND","FEMALE","Brown",3,"BODY","Yes"
"GERM SHEPHERD","FEMALE","White",0,"BODY","Yes"
"LABRADOR RETRIV","MALE","Black",0,"BODY","No"
"POMERANIAN","MALE","Tan",0,"HEAD","No"
"SHIH TZU","MALE","Black",1,"HEAD","Yes"
"PIT BULL","MALE","Gray",0,"BODY","No"
"PIT BULL","MALE","White",1,"BODY","Yes"
"PIT BULL","FEMALE","Brindle",0,"BODY","No"
"GERM SHEPHERD","MALE","White",1,"BODY","Yes"
"GREAT DANE","MALE","Gray",1,"BODY","Yes"
"CHOW CHOW","MALE","White",0,"BODY","No"
"GERM SHEPHERD","MALE","Black",1,"BODY","Yes"
"LABRADOR RETRIV","MALE","Tan",1,"BODY","Yes"
"GERM SHEPHERD","MALE","Black",3,"BODY","Yes"
"BOXER","FEMALE","Red",1,"BODY","Yes"
"BOXER","FEMALE","Brindle",1,"BODY","Yes"
"GERM SHEPHERD","MALE","Black",0,"BODY","Yes"
"LABRADOR RETRIV","FEMALE","Black",1,"BODY","Yes"
"CHICHAUHUA","MALE","Gray",0,"BODY","No"
"BEAGLE","MALE","White",1,"BODY","Yes"
"LABRADOR RETRIV","MALE","Black",0,"HEAD","No"
"PIT BULL","FEMALE","White",0,"BODY","No"
"PIT BULL","FEMALE","Gray",1,"HEAD","Yes"
"PIT BULL","FEMALE","White",0,"BODY","No"
"RED HEELER","MALE","Black",0,"BODY","No"
"POODLE","MALE","Black",1,"BODY","Yes"
"GERM SHEPHERD","MALE","White",1,"HEAD","Yes"
"DOBERMAN","MALE","Black",1,"BODY","Yes"
"BOXER","MALE","Brindle",1,"BODY","Yes"
"PIT BULL","FEMALE","Black",1,"BODY","Yes"
"PIT BULL","FEMALE","Brindle",1,"BODY","Yes"
"ROTTWEILER","MALE","Black",0,"BODY","No"
"PIT BULL","MALE","White",1,"BODY","Yes"
"BEAGLE","MALE","White",1,"BODY","Yes"
"AAUST. TERR.","FEMALE","Black",0,"BODY","No"
"GERM SHEPHERD","MALE","Black",1,"BODY","Yes"
"PUG","MALE","Brown",1,"BODY","Yes"
"PIT BULL","MALE","White",0,"HEAD","No"
"PIT BULL","MALE","Black",0,"BODY","No"
"GERM SHEPHERD","FEMALE","Black",3,"BODY","Yes"
"PIT BULL","MALE","Brindle",0,"BODY","No"
"ROTTWEILER","MALE","Black",1,"BODY","Yes"
"CHICHAUHUA","MALE","Brown",0,"BODY","No"
"DOTSON","MALE","Brown",1,"BODY","Yes"
"WEINER DOG","FEMALE","Gray",1,"BODY","Yes"
"BOXER","FEMALE","Brown",1,"BODY","Yes"
"PIT BULL","MALE","White",0,"BODY","No"
"ROTTWEILER","MALE","Black",3,"BODY","Yes"
"CHICHAUHUA","MALE","Tan",1,"HEAD","Yes"
"PIT BULL","MALE","Black",1,"BODY","Yes"
"BORDER COLLIE M","MALE","Black",1,"HEAD","Yes"
"SHIH TZU","MALE","Black",1,"BODY","Yes"
"PIT BULL","MALE","Brown",3,"BODY","Yes"
"PIT BULL","MALE","White",0,"BODY","No"
"PIT BULL","MALE","White",1,"BODY","Yes"
"PIT BULL","MALE","Black",0,"HEAD","No"
"SHIH TZU","FEMALE","White",0,"HEAD","No"
"AAUST. TERR.","MALE","Black",0,"HEAD","No"
"PIT BULL","MALE","Brindle",0,"HEAD","No"
"IRISH SPANIEL","FEMALE","White",3,"HEAD","Yes"
"HUSKY","MALE","White",1,"BODY","Yes"
"PIT BULL","FEMALE","White",1,"BODY","Yes"
"CHOW CHOW","MALE","Red",3,"BODY","Yes"
"GERM SHEPHERD","MALE","Black",1,"BODY","Yes"
"GERM SHEPHERD","MALE","Black",3,"HEAD","Yes"
"BULL DOG","MALE","White",3,"HEAD","Yes"
"PIT BULL","FEMALE","White",1,"BODY","Yes"
"PIT BULL","MALE","White",0,"BODY","No"
"GERM SHEPHERD","MALE","Black",0,"HEAD","Yes"
"GERM SHEPHERD","MALE","Black",0,"BODY","No"
"GERM SHEPHERD","MALE","Black",1,"BODY","Yes"
"LABRADOR RETRIV","FEMALE","White",3,"BODY","Yes"
"GERM SHEPHERD","MALE","Black",1,"BODY","Yes"
"PIT BULL","MALE","White",0,"BODY","No"
"GERM SHEPHERD","MALE","Black",3,"HEAD","Yes"
"GERM SHEPHERD","FEMALE","Black",1,"BODY","Yes"
"CHICHAUHUA","FEMALE","Brown",3,"HEAD","Yes"
"BLACK LAB","MALE","Black",1,"HEAD","Yes"
"PIT BULL","FEMALE","White",1,"BODY","Yes"
"CHOW CHOW","MALE","Black",0,"BODY","No"
"PIT BULL","MALE","White",0,"BODY","No"
"PIT BULL","MALE","White",0,"BODY","No"
"SHIH TZU","MALE","Black",1,"HEAD","Yes"
"BESINJI","MALE","White",1,"BODY","Yes"
"BOXER","MALE","White",0,"HEAD","No"
"PIT BULL","MALE","Black",0,"HEAD","Yes"
"PIT BULL","FEMALE","Black",1,"HEAD","Yes"
"ROTTWEILER","MALE","Black",0,"BODY","Yes"
"PIT BULL","FEMALE","Tan",0,"BODY","No"
"GERM SHEPHERD","MALE","Black",0,"BODY","Yes"
"POODLE","MALE","White",1,"BODY","Yes"
"BEAGLE","FEMALE","White",2,"BODY","Yes"
"PIT BULL","FEMALE","White",0,"BODY","No"
"GERM SHEPHERD","MALE","Black",1,"BODY","Yes"
"SHIH TZU","FEMALE","Black",1,"BODY","Yes"
"PIT BULL","MALE","White",0,"HEAD","No"
"PIT BULL","FEMALE","Black",0,"HEAD","Yes"
"BLACK LAB","MALE","Black",3,"BODY","Yes"
"AM. ESKIMO","MALE","White",3,"BODY","Yes"
"PIT BULL","FEMALE","Black",1,"BODY","Yes"
"PIT BULL","FEMALE","White",0,"BODY","No"
"BLACK LAB","MALE","Black",1,"HEAD","Yes"
"CANE CORSO","FEMALE","Black",0,"BODY","No"
"GOLD RETRIEVER","MALE","Red",0,"HEAD","No"
"CORGI","FEMALE","Black",1,"BODY","Yes"
"PIT BULL","MALE","Black",1,"BODY","Yes"
"PIT BULL","MALE","Brown",1,"BODY","Yes"
"CHICHAUHUA","MALE","White",0,"BODY","No"
"PIT BULL","MALE","White",1,"BODY","Yes"
"PIT BULL","FEMALE","White",0,"BODY","No"
"PIT BULL","FEMALE","White",0,"BODY","No"
"DOBERMAN","MALE","Black",1,"BODY","Yes"
"MALTASE","FEMALE","Black",3,"BODY","Yes"
"DACHSHUND","MALE","Black",1,"BODY","Yes"
"PIT BULL","FEMALE","White",3,"HEAD","Yes"
"DOBERMAN","MALE","Brown",1,"HEAD","Yes"
"BORDER COLLIE M","MALE","Brown",0,"BODY","No"
"ROTTWEILER","MALE","Black",0,"BODY","No"
"PIT BULL","MALE","White",0,"BODY","No"
"BOXER","MALE","Brown",1,"HEAD","Yes"
"ROTTWEILER","FEMALE","Black",0,"BODY","No"
"PIT BULL","MALE","White",0,"BODY","No"
"CORGI","MALE","White",1,"BODY","Yes"
"GERM SHEPHERD","FEMALE","Tan",1,"BODY","Yes"
"PIT BULL","MALE","Black",0,"BODY","No"
"CANE CORSO","FEMALE","White",0,"BODY","No"
"PIT BULL","MALE","White",0,"BODY","No"
"PIT BULL","FEMALE","White",0,"BODY","No"
"PIT BULL","FEMALE","White",0,"BODY","No"
"BOXER","FEMALE","Brindle",1,"BODY","Yes"
"CHICHAUHUA","MALE","Black",1,"BODY","Yes"
"AM BULLDOG","MALE","White",0,"HEAD","No"
"GERM SHEPHERD","FEMALE","Black",1,"BODY","Yes"
"PIT BULL","MALE","Black",0,"BODY","No"
"PIT BULL","FEMALE","White",1,"BODY","Yes"
"ROTTWEILER","MALE","Black",0,"BODY","No"
"TOY FOX TERRIER","MALE","Black",0,"HEAD","No"
"DACHSHUND","MALE","Brown",0,"BODY","No"
"HAVANESE","MALE","Black",0,"HEAD","No"
"BOXER","MALE","Brown",1,"BODY","Yes"
"POMERANIAN","MALE","White",1,"BODY","Yes"
"SHAR-PEI","FEMALE","Tan",1,"BODY","Yes"
"CHICHAUHUA","MALE","Black",1,"BODY","Yes"
"GERM SHEPHERD","MALE","Brown",0,"BODY","No"
"PIT BULL","MALE","Tan",0,"BODY","No"
"DACHSHUND","MALE","Brown",1,"BODY","Yes"
"GERM SHEPHERD","MALE","Black",1,"BODY","Yes"
"LABRADOR RETRIV","MALE","Brown",0,"BODY","No"
"PEKINGESE","MALE","Brown",3,"BODY","Yes"
"PIT BULL","FEMALE","Tan",1,"BODY","Yes"
"PIT BULL","MALE","Brown",1,"BODY","Yes"
"AM BULLDOG","MALE","White",1,"BODY","Yes"
"AAUST. TERR.","MALE","Brown",3,"BODY","Yes"
"GERM SHEPHERD","MALE","Black",0,"BODY","Yes"
"PIT BULL","MALE","Black",0,"BODY","No"
"BORDER COLLIE M","MALE","Black",1,"BODY","Yes"
"POMERANIAN","MALE","White",0,"BODY","No"
"BULLMASTIFF","MALE","Brindle",0,"HEAD","No"
"PIT BULL","MALE","White",0,"HEAD","No"
"PIT BULL","FEMALE","White",1,"BODY","Yes"
"PIT BULL","MALE","White",0,"BODY","No"
"PIT BULL","MALE","White",0,"BODY","No"
"GERM SHEPHERD","FEMALE","Black",0,"BODY","Yes"
"CANE CORSO","FEMALE","Brindle",1,"BODY","Yes"
"GREAT DANE","FEMALE","Black",1,"BODY","Yes"
"SCHNAUZER","MALE","White",0,"BODY","No"
"GERM SHEPHERD","MALE","Black",0,"BODY","Yes"
"PIT BULL","FEMALE","White",0,"HEAD","No"
"CORGI","MALE","Brown",1,"BODY","Yes"
"PIT BULL","MALE","Black",0,"HEAD","No"
"PIT BULL","MALE","Brown",0,"BODY","No"
"YORKSHIRE TERRIER","MALE","Black",1,"BODY","Yes"
"PIT BULL","MALE","White",0,"BODY","No"
"LABRADOR RETRIV","MALE","Black",0,"BODY","No"
"ENGLISH BULLDOG","FEMALE","White",3,"BODY","Yes"
"PIT BULL","MALE","White",0,"BODY","No"
"PIT BULL","MALE","Brindle",0,"HEAD","No"
"CHICHAUHUA","FEMALE","Tan",0,"BODY","No"
"MIN PIN","MALE","Black",0,"BODY","No"
"BORDER COLLIE M","MALE","Tan",1,"BODY","Yes"
"CHICHAUHUA","MALE","Black",1,"HEAD","Yes"
"MIN PIN","MALE","Black",1,"BODY","Yes"
"FOX TERRIER","MALE","Black",3,"BODY","Yes"
"POODLE","MALE","Gray",1,"BODY","Yes"
"COCKER SPAINEL","MALE","Black",0,"HEAD","No"
"LABRADOR RETRIV","FEMALE","Brown",1,"BODY","Yes"
"GERM SHEPHERD","MALE","Black",3,"BODY","Yes"
"GERM SHEPHERD","FEMALE","Black",0,"BODY","Yes"
"AM. ESKIMO","MALE","White",1,"BODY","Yes"
"POODLE","MALE","Brown",1,"BODY","Yes"
"LABRADOR RETRIV","MALE","Black",0,"BODY","Yes"
"PIT BULL","MALE","White",1,"BODY","Yes"
"PIT BULL","MALE","White",1,"BODY","Yes"
"PIT BULL","FEMALE","Black",1,"BODY","Yes"
"COCKER SPAINEL","MALE","White",3,"BODY","Yes"
"PIT BULL","FEMALE","Red",0,"BODY","No"
"CANE CORSO","MALE","Brindle",3,"BODY","Yes"
"PIT BULL","FEMALE","Black",0,"BODY","No"
"BORDER COLLIE","FEMALE","Black",1,"BODY","Yes"
"ALASK. MALAMUTE","MALE","White",1,"HEAD","Yes"
"HUSKY","MALE","Brown",0,"BODY","No"
"PIT BULL","MALE","Brown",3,"BODY","Yes"
"PIT BULL","FEMALE","White",1,"BODY","Yes"
"PIT BULL","MALE","White",0,"BODY","No"
"PIT BULL","FEMALE","White",3,"BODY","Yes"
"BOXER","MALE","White",0,"BODY","No"
"PIT BULL","FEMALE","Black",1,"BODY","Yes"
"PIT BULL","FEMALE","Black",1,"BODY","Yes"
"HUSKY","MALE","White",1,"BODY","Yes"
"GERM SHEPHERD","MALE","White",0,"BODY","No"
"PIT BULL","MALE","Black",0,"BODY","No"
"LABRADOR RETRIV","MALE","Black",3,"BODY","Yes"
"YORKSHIRE TERRIER","FEMALE","Brown",1,"BODY","Yes"
"GREAT PYRENEESE","FEMALE","White",1,"BODY","Yes"
"GERM SHEPHERD","MALE","Black",0,"BODY","No"
"BEARDED COLLIE","FEMALE","White",3,"BODY","Yes"
"PIT BULL","FEMALE","White",1,"HEAD","Yes"
"PIT BULL","MALE","White",0,"HEAD","No"
"MASTIF","MALE","Red",1,"BODY","Yes"
"PIT BULL","MALE","White",0,"BODY","No"
"GOLD RETRIEVER","MALE","White",0,"HEAD","No"
"PIT BULL","MALE","Tan",0,"BODY","No"
"PIT BULL","MALE","Brown",0,"BODY","Yes"
"PIT BULL","MALE","White",0,"HEAD","No"
"PIT BULL","FEMALE","White",1,"BODY","Yes"
"PIT BULL","MALE","White",0,"BODY","No"
"BULL DOG","MALE","White",3,"BODY","Yes"
"GREYHOUND","MALE","Black",0,"HEAD","No"
"PIT BULL","FEMALE","White",0,"BODY","Yes"
"WELSH CORGI","FEMALE","White",0,"BODY","No"
"PIT BULL","FEMALE","White",0,"BODY","No"
"PIT BULL","FEMALE","Tan",1,"BODY","Yes"
"PIT BULL","MALE","White",0,"HEAD","No"
"LABRADOR RETRIV","MALE","Black",1,"HEAD","Yes"
"PIT BULL","MALE","Black",1,"BODY","Yes"
"BLACK LAB","MALE","Black",0,"BODY","No"
"PIT BULL","MALE","White",1,"BODY","Yes"
"PIT BULL","MALE","White",0,"HEAD","No"
"AAUST. TERR.","MALE","Black",1,"HEAD","Yes"
"SHIH TZU","FEMALE","Black",0,"BODY","No"
"MIN PIN","MALE","Black",0,"HEAD","No"
"PIT BULL","MALE","White",0,"BODY","No"
"COCKER SPAINEL","MALE","Black",1,"BODY","Yes"
"PIT BULL","MALE","Black",3,"BODY","Yes"
"PIT BULL","MALE","Black",1,"BODY","Yes"
"PIT BULL","MALE","White",0,"BODY","No"
"PIT BULL","MALE","Black",0,"BODY","No"
"GERM SHEPHERD","MALE","Black",1,"BODY","Yes"
"GERM SHEPHERD","MALE","Black",3,"BODY","Yes"
"SHIH TZU","MALE","White",1,"BODY","Yes"
"BULLMASTIFF","MALE","Tan",1,"BODY","Yes"
"BULLMASTIFF","MALE","Tan",1,"BODY","Yes"
"LABRADOR RETRIV","FEMALE","Black",0,"BODY","No"
"PIT BULL","FEMALE","Brown",0,"BODY","No"
"GERM SHEPHERD","MALE","Black",1,"BODY","Yes"
"PIT BULL","MALE","White",0,"BODY","No"
"GERM SHEPHERD","MALE","Brown",1,"BODY","Yes"
"PIT BULL","MALE","White",3,"BODY","Yes"
"CHICHAUHUA","MALE","Black",1,"BODY","Yes"
"POODLE","MALE","White",1,"BODY","Yes"
"PIT BULL","MALE","White",0,"BODY","No"
"BOXER","MALE","Brindle",3,"BODY","Yes"
"CHICHAUHUA","FEMALE","White",0,"BODY","No"
"CORGI","MALE","Black",3,"BODY","Yes"
"HUSKY","FEMALE","White",3,"HEAD","Yes"
"SHIH TZU","MALE","Brown",1,"BODY","Yes"
"PIT BULL","MALE","Gray",0,"BODY","Yes"
"BORDER COLLIE M","MALE","Black",3,"BODY","Yes"
"PIT BULL","FEMALE","White",1,"BODY","Yes"
"ROTTWEILER","MALE","Black",1,"HEAD","Yes"
"AAUST. TERR.","MALE","White",1,"HEAD","Yes"
"PIT BULL","FEMALE","Brindle",1,"BODY","Yes"
"DOBERMAN","MALE","Black",1,"HEAD","Yes"
"PIT BULL","FEMALE","Brown",3,"BODY","Yes"
"PIT BULL","FEMALE","Brown",3,"BODY","Yes"
"PIT BULL","FEMALE","Brindle",3,"BODY","Yes"
"AM BULLDOG","MALE","Brindle",0,"BODY","No"
"CHICHAUHUA","MALE","Black",0,"BODY","No"
"PIT BULL","MALE","Black",0,"HEAD","No"
"GERM SHEPHERD","MALE","Black",3,"BODY","Yes"
"CANE CORSO","MALE","White",0,"BODY","No"
"BULLMASTIFF","MALE","Tan",0,"BODY","No"
"GOLD RETRIEVER","MALE","Red",1,"BODY","Yes"
"GOLD RETRIEVER","MALE","Red",1,"BODY","Yes"
"BEAGLE","MALE","Brown",1,"BODY","Yes"
"CATTLE DOG","MALE","Black",1,"BODY","Yes"
"CHICHAUHUA","MALE","White",0,"BODY","No"
"CHICHAUHUA","FEMALE","Brown",0,"BODY","No"
"LABRADOR RETRIV","MALE","Black",1,"BODY","Yes"
"CHICHAUHUA","FEMALE","Brown",1,"BODY","Yes"
"SCOTTISH TER.","FEMALE","Black",3,"HEAD","Yes"
"BEAGLE","MALE","Black",1,"BODY","Yes"
"ROTTWEILER","MALE","Black",3,"BODY","No"
"BOXER","MALE","White",1,"BODY","Yes"
"PIT BULL","MALE","White",0,"HEAD","No"
"PIT BULL","FEMALE","Brindle",1,"HEAD","Yes"
"BOUVIER","MALE","Black",3,"BODY","Yes"
"SPITZ","MALE","White",1,"BODY","Yes"
"PIT BULL","MALE","Black",0,"HEAD","No"
"GERM SHEPHERD","MALE","Brown",1,"BODY","Yes"
"GERM SHEPHERD","FEMALE","Black",1,"BODY","Yes"
"GERM SHEPHERD","MALE","White",1,"BODY","Yes"
"WEIMARANER","MALE","Gray",3,"BODY","Yes"
"PIT BULL","FEMALE","Gray",0,"BODY","No"
"BOXER","MALE","Black",1,"BODY","Yes"
"CANE CORSO","MALE","Black",0,"HEAD","No"
"GERM SHEPHERD","FEMALE","Black",1,"BODY","Yes"
"PIT BULL","FEMALE","White",3,"BODY","No"
"FOX TERRIER","FEMALE","Black",3,"BODY","Yes"
"POMERANIAN","MALE","White",1,"HEAD","Yes"
"BEAGLE","FEMALE","Tan",1,"BODY","Yes"
"PIT BULL","MALE","Gray",1,"BODY","Yes"
"CHICHAUHUA","MALE","Tan",0,"BODY","No"
"BULLMASTIFF","MALE","Black",0,"BODY","No"
"PIT BULL","MALE","Black",1,"BODY","Yes"
"PIT BULL","MALE","Gray",1,"BODY","Yes"
"GERM SHEPHERD","MALE","Black",0,"BODY","No"
"BULLMASTIFF","FEMALE","Black",0,"BODY","No"
"BEAGLE","MALE","White",0,"HEAD","No"
"LABRADOR RETRIV","MALE","Brown",1,"HEAD","Yes"
"CANE CORSO","MALE","Brown",3,"BODY","Yes"
"SHIH TZU","MALE","Black",0,"BODY","No"
"PIT BULL","MALE","White",0,"BODY","No"
"PIT BULL","MALE","Black",1,"BODY","Yes"
"BORDER COLLIE","FEMALE","Black",0,"BODY","No"
"BLOOD HOUND","FEMALE","Brown",1,"BODY","Yes"
"BOXER","MALE","White",0,"BODY","No"
"CATTLE DOG","MALE","Black",3,"HEAD","Yes"
"LABRADOR RETRIV","MALE","Black",1,"HEAD","Yes"
"SIBERAN HUSKY","MALE","White",0,"BODY","No"
"MIN PIN","MALE","Black",0,"BODY","Yes"
"PIT BULL","MALE","Brindle",1,"BODY","Yes"
"GOLD RETRIEVER","MALE","Brown",0,"HEAD","No"
"SHIH TZU","FEMALE","Black",0,"HEAD","No"
"COON HOUND","MALE","Black",0,"BODY","No"
"PIT BULL","MALE","White",1,"BODY","Yes"
"BULL DOG","MALE","Black",0,"HEAD","No"
"LABRADOR RETRIV","FEMALE","Black",1,"BODY","Yes"
"PIT BULL","MALE","Brown",0,"BODY","No"
"PIT BULL","MALE","Brown",0,"BODY","No"
"BULL DOG","MALE","White",1,"BODY","Yes"
"SHIH TZU","MALE","White",0,"BODY","No"
"PIT BULL","MALE","Brown",1,"BODY","Yes"
"CHICHAUHUA","FEMALE","Tan",0,"BODY","No"
"PIT BULL","MALE","Black",0,"BODY","No"
"AKITA","MALE","Black",0,"BODY","No"
"YORKSHIRE TERRIER","MALE","Black",3,"BODY","Yes"
"ENGLISH SHEPARD","FEMALE","Black",0,"BODY","No"
"PIT BULL","MALE","White",0,"BODY","No"
"PIT BULL","MALE","Tan",0,"BODY","No"
"GERM SHEPHERD","MALE","Brown",0,"BODY","No"
"BOSTON TERRIER","FEMALE","White",1,"HEAD","Yes"
"DACHSHUND","MALE","Brown",1,"HEAD","Yes"
"CANE CORSO","MALE","White",0,"BODY","No"
"DALMATIAN","FEMALE","Black",3,"BODY","Yes"
"PIT BULL","FEMALE","Gray",1,"BODY","Yes"
"AMER. BULL DOG","MALE","Black",1,"BODY","Yes"
"SHIH TZU","MALE","White",1,"HEAD","Yes"
"BOSTON TERRIER","MALE","Black",1,"HEAD","Yes"
"PIT BULL","MALE","Tan",3,"BODY","Yes"
"GERM SHEPHERD","MALE","Black",0,"HEAD","Yes"
"CHICHAUHUA","MALE","Brown",0,"HEAD","Yes"
"GERM SHEPHERD","MALE","Black",1,"BODY","Yes"
"BOXER","MALE","White",0,"BODY","Yes"
"PIT BULL","FEMALE","White",1,"BODY","Yes"
"PIT BULL","FEMALE","Black",0,"BODY","No"
"GERM SHEPHERD","MALE","Black",1,"BODY","Yes"
"PIT BULL","MALE","White",0,"BODY","No"
"CHICHAUHUA","MALE","Black",0,"BODY","Yes"
"PIT BULL","MALE","Brindle",1,"HEAD","Yes"
"AMER. BULL DOG","MALE","White",0,"BODY","No"
"LABRADOR RETRIV","MALE","Black",1,"BODY","Yes"
"GERM SHEPHERD","MALE","Black",1,"HEAD","Yes"
"CANE CORSO","FEMALE","Black",1,"BODY","Yes"
"ROTTWEILER","FEMALE","Black",1,"HEAD","Yes"
"ROTTWEILER","MALE","Black",0,"HEAD","No"
"CHICHAUHUA","MALE","Brown",1,"BODY","Yes"
"GERM SHEPHERD","MALE","Black",1,"BODY","Yes"
"CHICHAUHUA","MALE","Tan",0,"BODY","Yes"
"BEAGLE","FEMALE","White",1,"BODY","Yes"
"GERM SHEPHERD","MALE","Black",1,"BODY","Yes"
"CATAHOULA","FEMALE","Red",1,"BODY","Yes"
"BULLMASTIFF","FEMALE","White",0,"BODY","No"
"CHICHAUHUA","MALE","Brown",0,"HEAD","No"
"BEAGLE","MALE","Black",1,"HEAD","Yes"
"SHIH TZU","MALE","White",1,"BODY","Yes"
"CHOW CHOW","MALE","Black",1,"BODY","Yes"
"RAT TERRIER","MALE","White",1,"BODY","Yes"
"BULLMASTIFF","MALE","Black",0,"BODY","No"
"LABRADOR RETRIV","MALE","Tan",1,"BODY","Yes"
"SHIH TZU","FEMALE","White",1,"BODY","Yes"
"SHIH TZU","FEMALE","White",0,"HEAD","No"
"PIT BULL","MALE","Black",0,"HEAD","No"
"BEAGLE","MALE","White",1,"BODY","Yes"
"ENGLISH BULLDOG","MALE","Black",1,"BODY","Yes"
"PIT BULL","MALE","Black",1,"BODY","Yes"
"BULLMASTIFF","MALE","Black",3,"BODY","Yes"
"MALTASE","MALE","White",1,"HEAD","Yes"
"PIT BULL","MALE","Brown",1,"HEAD","Yes"
"SCHNAUZER","FEMALE","White",1,"BODY","Yes"
"SIBERAN HUSKY","FEMALE","White",1,"BODY","Yes"
"BICHON FRISE","FEMALE","White",1,"BODY","Yes"
"PIT BULL","MALE","Brindle",0,"HEAD","No"
"AMER. BULL DOG","MALE","White",1,"BODY","Yes"
"PIT BULL","MALE","Black",1,"BODY","Yes"
"PIT BULL","MALE","White",0,"BODY","Yes"
"PIT BULL","FEMALE","Brindle",0,"BODY","No"
"PIT BULL","MALE","Brown",1,"BODY","Yes"
"AAUST. TERR.","MALE","Black",0,"HEAD","Yes"
"BOXER","FEMALE","Black",0,"BODY","No"
"ENGLISH BULLDOG","MALE","White",3,"BODY","Yes"
"PIT BULL","FEMALE","White",0,"BODY","No"
"AMER. BULL DOG","MALE","Brown",0,"HEAD","No"
"BEAGLE","MALE","White",1,"BODY","Yes"
"PIT BULL","MALE","Gray",0,"BODY","No"
"GOLD RETRIEVER","MALE","Black",0,"BODY","No"
"LABRADOR RETRIV","MALE","Brown",0,"BODY","No"
"LABRADOR RETRIV","MALE","Brown",1,"HEAD","Yes"
"ROTTWEILER","MALE","Black",0,"BODY","No"
"ROTTWEILER","MALE","Black",0,"BODY","No"
"LABRADOR RETRIV","MALE","Brown",0,"BODY","No"
"PIT BULL","MALE","Black",0,"BODY","No"
"BORDER COLLIE","FEMALE","White",3,"BODY","Yes"
"LABRADOR RETRIV","MALE","Black",1,"BODY","Yes"
"LABRADOR RETRIV","MALE","Black",0,"HEAD","No"
"GERM SHEPHERD","MALE","White",1,"BODY","Yes"
"GERM SHEPHERD","MALE","White",1,"BODY","Yes"
"PIT BULL","MALE","White",0,"BODY","No"
"BOXER","MALE","Brown",1,"HEAD","Yes"
"YORKSHIRE TERRIER","FEMALE","White",1,"HEAD","Yes"
"BOXER","MALE","White",0,"BODY","Yes"
"PIT BULL","MALE","White",0,"BODY","No"
"LABRADOR RETRIV","MALE","Brown",1,"BODY","Yes"
"POMERANIAN","MALE","Black",1,"HEAD","Yes"
"PIT BULL","FEMALE","White",0,"BODY","Yes"
"DACHSHUND","MALE","Black",0,"BODY","No"
"PIT BULL","MALE","Black",0,"BODY","No"
"GERM SHEPHERD","FEMALE","White",0,"BODY","No"
"GERM SHEPHERD","MALE","Black",0,"HEAD","No"
"LABRADOR RETRIV","MALE","Black",0,"BODY","No"
"GERM SHEPHERD","MALE","Black",0,"BODY","No"
"PIT BULL","MALE","White",0,"BODY","No"
"POODLE","MALE","White",0,"BODY","No"
"BEAGLE","MALE","White",0,"BODY","No"
"GERM SHEPHERD","MALE","Black",1,"BODY","Yes"
"PIT BULL","FEMALE","White",0,"BODY","No"
"PIT BULL","MALE","Black",1,"BODY","Yes"
"LABRADOR RETRIV","FEMALE","Black",1,"BODY","Yes"
"PIT BULL","MALE","Brindle",1,"BODY","Yes"
"ROTTWEILER","MALE","Black",1,"BODY","Yes"
"PIT BULL","FEMALE","Gray",0,"BODY","No"
"GERM SHEPHERD","MALE","Black",0,"BODY","Yes"
"CHICHAUHUA","MALE","White",1,"HEAD","Yes"
"GREAT DANE","MALE","Gray",0,"BODY","No"
"SHIH TZU","FEMALE","Black",0,"HEAD","No"
"SHIH TZU","MALE","Black",0,"BODY","Yes"
"PIT BULL","MALE","Red",0,"BODY","No"
"PIT BULL","MALE","White",0,"HEAD","No"
"BOXER","MALE","White",0,"BODY","No"
"LABRADOR RETRIV","MALE","Black",3,"BODY","Yes"
"BEAGLE","FEMALE","Black",1,"BODY","Yes"
"SIBERAN HUSKY","FEMALE","White",1,"BODY","Yes"
"CHICHAUHUA","MALE","White",0,"BODY","No"
"PIT BULL","FEMALE","White",0,"BODY","No"
"SHIH TZU","MALE","Black",1,"HEAD","Yes"
"PIT BULL","MALE","Black",0,"BODY","No"
"SHIH TZU","MALE","Black",0,"BODY","Yes"
"COLLIE","MALE","White",3,"HEAD","Yes"
"PIT BULL","MALE","Black",1,"HEAD","Yes"
"PIT BULL","FEMALE","Black",0,"BODY","No"
"BEAGLE","MALE","White",0,"BODY","No"
"BLOOD HOUND","MALE","Red",1,"BODY","Yes"
"CHICHAUHUA","FEMALE","White",0,"BODY","No"
"BLACK LAB","FEMALE","Black",0,"BODY","No"
"PIT BULL","MALE","Black",3,"BODY","Yes"
"BOXER","MALE","Brindle",3,"BODY","Yes"
"PIT BULL","MALE","White",0,"BODY","No"
"LABRADOR RETRIV","FEMALE","Brown",3,"HEAD","Yes"
"BOXER","MALE","White",1,"BODY","Yes"
"PIT BULL","MALE","Black",3,"BODY","Yes"
"GERM SHEPHERD","MALE","Black",1,"BODY","Yes"
"PIT BULL","MALE","Black",0,"BODY","Yes"
"MIN PIN","MALE","Brown",0,"BODY","No"
"BOSTON TERRIER","MALE","Black",1,"BODY","Yes"
"PIT BULL","MALE","Gray",1,"BODY","Yes"
"PIT BULL","FEMALE","White",0,"BODY","No"
"SCHNAUZER","MALE","Black",1,"BODY","Yes"
"WEIMARANER","FEMALE","Gray",0,"HEAD","No"
"PIT BULL","FEMALE","Black",0,"BODY","No"
"PIT BULL","MALE","Brindle",0,"BODY","No"
"BASSET HOUND","MALE","Black",0,"HEAD","No"
"PIT BULL","MALE","White",0,"BODY","No"
"CANE CORSO","MALE","Brindle",0,"BODY","No"
"GERM SHEPHERD","MALE","Black",1,"BODY","Yes"
"PIT BULL","MALE","White",0,"BODY","Yes"
"GERM SHEPHERD","FEMALE","White",0,"HEAD","No"
"PIT BULL","MALE","White",0,"BODY","No"
"GERM SHEPHERD","MALE","White",0,"BODY","Yes"
"BOXER","MALE","Brown",1,"HEAD","Yes"
"PIT BULL","FEMALE","Black",0,"BODY","No"
"PIT BULL","MALE","Black",1,"BODY","Yes"
"GERM SHEPHERD","MALE","Black",1,"BODY","Yes"
"BOXER","MALE","Brindle",0,"BODY","No"
"PIT BULL","FEMALE","Gray",0,"BODY","No"
"GREAT DANE","MALE","Black",0,"BODY","No"
"SCHNAUZER","FEMALE","Black",0,"BODY","No"
"LABRADOR RETRIV","MALE","Black",0,"BODY","No"
"LABRADOR RETRIV","FEMALE","Black",0,"BODY","Yes"
"BOXER","MALE","White",0,"HEAD","Yes"
"PIT BULL","MALE","White",0,"BODY","No"
"PIT BULL","MALE","White",0,"BODY","No"
"POODLE","FEMALE","Brown",1,"BODY","Yes"
"CHICHAUHUA","FEMALE","White",3,"BODY","Yes"
"BOXER","FEMALE","White",1,"BODY","Yes"
"BOSTON TERRIER","MALE","Black",1,"BODY","Yes"
"PIT BULL","MALE","White",0,"BODY","No"
"LABRADOR RETRIV","MALE","Brown",1,"BODY","Yes"
"BEAGLE","MALE","White",0,"HEAD","No"
"BEAGLE","FEMALE","White",3,"BODY","Yes"
"GERM SHEPHERD","FEMALE","Black",0,"BODY","No"
"SIBERAN HUSKY","FEMALE","Black",1,"BODY","Yes"
"PIT BULL","FEMALE","White",1,"BODY","Yes"
"LABRADOR RETRIV","MALE","White",0,"BODY","Yes"
"COCKER SPAINEL","MALE","Black",3,"HEAD","Yes"
"GERM SHEPHERD","FEMALE","Black",0,"BODY","No"
"GERM SHEPHERD","MALE","Tan",0,"BODY","No"
"SCHNAUZER","MALE","White",0,"BODY","Yes"
"PIT BULL","MALE","White",0,"BODY","Yes"
"PIT BULL","MALE","White",3,"BODY","Yes"
"BOXER","MALE","White",1,"BODY","Yes"
"IRISH SETTER","MALE","Red",1,"BODY","Yes"
"YORKSHIRE TERRIER","MALE","Brown",0,"BODY","No"
"GERM SHEPHERD","MALE","Black",0,"BODY","Yes"
"GERM SHEPHERD","FEMALE","Black",0,"BODY","Yes"
"BORDER COLLIE M","MALE","Black",1,"BODY","Yes"
"LABRADOR RETRIV","FEMALE","Tan",0,"BODY","Yes"
"LABRADOR RETRIV","MALE","White",1,"BODY","Yes"
"PIT BULL","MALE","White",0,"BODY","Yes"
"SIBERAN HUSKY","MALE","White",1,"BODY","Yes"
"PIT BULL","MALE","Black",1,"HEAD","Yes"
"LABRADOR RETRIV","MALE","White",3,"BODY","Yes"
"BULL DOG","MALE","Black",0,"BODY","Yes"
"BOXER","MALE","Black",0,"HEAD","No"
"PIT BULL","MALE","White",0,"BODY","Yes"
"LABRADOR RETRIV","FEMALE","Brown",1,"BODY","Yes"
"BULL DOG","MALE","White",0,"BODY","No"
"GREAT DANE","FEMALE","Black",1,"BODY","Yes"
"PIT BULL","MALE","Black",1,"BODY","Yes"
"GREAT DANE","MALE","Black",1,"BODY","No"
"BEAGLE","MALE","Black",0,"BODY","No"
"PIT BULL","FEMALE","Brown",0,"BODY","No"
"DACHSHUND","MALE","Brown",1,"BODY","Yes"
"CANE CORSO","MALE","Black",0,"BODY","No"
"ENGLISH BULLDOG","MALE","Brown",0,"HEAD","No"
"DACHSHUND","FEMALE","Black",0,"BODY","No"
"BULL DOG","MALE","White",1,"HEAD","Yes"
"GERM SHEPHERD","MALE","Black",0,"BODY","No"
"PIT BULL","MALE","White",0,"BODY","No"
"BICHON FRESE","FEMALE","White",1,"BODY","Yes"
"MASTIF","FEMALE","Brindle",0,"BODY","No"
"PIT BULL","MALE","Black",0,"BODY","Yes"
"PIT BULL","MALE","Black",0,"BODY","Yes"
"AAUST. TERR.","MALE","Brown",1,"HEAD","Yes"
"MASTIF","MALE","White",0,"BODY","Yes"
"PIT BULL","MALE","Gray",0,"BODY","No"
"SCHNAUZER","MALE","Black",1,"BODY","Yes"
"PIT BULL","MALE","Brown",1,"BODY","Yes"
"ROTTWEILER","MALE","Black",0,"BODY","No"
"ROTTWEILER","MALE","Black",0,"BODY","Yes"
"PIT BULL","FEMALE","Brindle",1,"BODY","Yes"
"SHIH TZU","MALE","White",3,"BODY","Yes"
"AAUST. TERR.","FEMALE","Gray",0,"HEAD","No"
"PIT BULL","MALE","Brindle",1,"HEAD","Yes"
"PIT BULL","MALE","Brindle",0,"BODY","No"
"CHICHAUHUA","MALE","Black",1,"BODY","Yes"
"MALTASE","MALE","Black",0,"BODY","No"
"CHICHAUHUA","FEMALE","White",0,"BODY","No"
"BASSET HOUND","MALE","White",0,"BODY","No"
"BORDER COLLIE","FEMALE","Black",1,"HEAD","Yes"
"PIT BULL","MALE","White",1,"BODY","Yes"
"BULL DOG","MALE","White",1,"BODY","Yes"
"PIT BULL","MALE","Black",0,"BODY","No"
"HUSKY","FEMALE","White",3,"HEAD","Yes"
"GERM SHEPHERD","MALE","Black",1,"HEAD","Yes"
"PIT BULL","FEMALE","White",0,"HEAD","Yes"
"CHICHAUHUA","FEMALE","Brown",1,"BODY","Yes"
"AAUST. TERR.","FEMALE","Black",1,"BODY","Yes"
"PIT BULL","MALE","Black",1,"BODY","Yes"
"LABRADOR RETRIV","FEMALE","Black",3,"BODY","Yes"
"LABRADOR RETRIV","MALE","Black",0,"BODY","No"
"PIT BULL","MALE","White",0,"HEAD","No"
"GERM SHEPHERD","MALE","Black",0,"BODY","No"
"BOXER","MALE","Black",1,"HEAD","Yes"
"LABRADOR RETRIV","FEMALE","Black",3,"HEAD","Yes"
"GERM SHEPHERD","MALE","Black",1,"BODY","Yes"
"BOXER","MALE","Brown",0,"BODY","No"
"PIT BULL","FEMALE","Brown",1,"BODY","Yes"
"PIT BULL","FEMALE","White",0,"BODY","No"
"GERM SHEPHERD","FEMALE","Black",3,"BODY","Yes"
"PIT BULL","FEMALE","White",0,"BODY","No"
"PIT BULL","MALE","Tan",0,"BODY","No"
"PIT BULL","MALE","Black",1,"HEAD","Yes"
"GERM SHEPHERD","FEMALE","Black",1,"BODY","Yes"
"PIT BULL","MALE","Brown",1,"BODY","Yes"
"CHICHAUHUA","FEMALE","White",1,"BODY","Yes"
"SIBERAN HUSKY","FEMALE","White",0,"BODY","Yes"
"GERM SHEPHERD","MALE","Tan",1,"BODY","Yes"
"DACHSHUND","MALE","Black",3,"BODY","Yes"
"BICHON FRESE","MALE","White",0,"BODY","No"
"PIT BULL","FEMALE","Black",3,"BODY","Yes"
"CHOW CHOW","MALE","Tan",0,"BODY","No"
"BERNESEN MT.","MALE","Black",1,"BODY","Yes"
"PIT BULL","MALE","Brindle",0,"BODY","No"
"PIT BULL","MALE","Brown",0,"BODY","No"
"PIT BULL","MALE","Black",0,"HEAD","No"
"PIT BULL","FEMALE","White",0,"BODY","No"
"PIT BULL","MALE","Brindle",3,"BODY","Yes"
"DOBERMAN","MALE","Black",1,"BODY","Yes"
"PIT BULL","MALE","White",0,"BODY","Yes"
"MASTIF","MALE","Black",3,"BODY","Yes"
"CHICHAUHUA","FEMALE","White",0,"HEAD","No"
"PIT BULL","FEMALE","White",0,"BODY","Yes"
"HUSKY","FEMALE","White",1,"BODY","Yes"
"PIT BULL","FEMALE","Gray",0,"BODY","No"
"PIT BULL","FEMALE","White",0,"BODY","No"
"PIT BULL","MALE","Brown",1,"BODY","Yes"
"PIT BULL","FEMALE","White",1,"BODY","Yes"
"PIT BULL","FEMALE","Brindle",0,"BODY","No"
"LABRADOR RETRIV","FEMALE","Brown",1,"HEAD","Yes"
"BLACK LAB","MALE","Black",1,"BODY","Yes"
"GERM SHEPHERD","MALE","Black",1,"BODY","Yes"
"AAUST. TERR.","MALE","Black",1,"HEAD","Yes"
"BOXER","MALE","White",0,"BODY","No"
"MASTIF","FEMALE","Tan",3,"HEAD","Yes"
"DACHSHUND","FEMALE","Red",1,"BODY","Yes"
"AM BULLDOG","FEMALE","Black",0,"BODY","No"
"PIT BULL","MALE","Tan",1,"BODY","Yes"
"BEAGLE","FEMALE","Red",0,"BODY","No"
"LABRADOR RETRIV","MALE","White",0,"HEAD","No"
"DACHSHUND","FEMALE","Brown",3,"BODY","Yes"
"PIT BULL","MALE","Brown",1,"BODY","Yes"
"BOXER","MALE","Red",0,"HEAD","No"
"SHIH TZU","MALE","Black",0,"BODY","No"
"PIT BULL","MALE","Black",1,"BODY","Yes"
"DACHSHUND","FEMALE","Black",1,"BODY","Yes"
"GERM SHEPHERD","MALE","Black",1,"BODY","Yes"
"PIT BULL","MALE","White",0,"BODY","No"
"PIT BULL","MALE","White",0,"BODY","No"
"PIT BULL","MALE","White",0,"BODY","Yes"
"PIT BULL","FEMALE","White",0,"BODY","No"
"SHIH TZU","MALE","Black",0,"HEAD","No"
"PUG","MALE","Brown",1,"BODY","Yes"
"LABRADOR RETRIV","FEMALE","Brown",3,"BODY","Yes"
"YORKSHIRE TERRIER","MALE","Brown",0,"BODY","No"
"IRISH WOLFHOUND","MALE","Black",1,"BODY","Yes"
"AMER. BULL DOG","MALE","White",1,"HEAD","Yes"
"PIT BULL","MALE","White",3,"BODY","Yes"
"GERM SHEPHERD","MALE","Black",0,"HEAD","No"
"LABRADOR RETRIV","FEMALE","Tan",1,"BODY","Yes"
"DOTSON","MALE","Brown",3,"HEAD","Yes"
"BOXER","MALE","Black",0,"HEAD","No"
"LABRADOR RETRIV","MALE","Black",1,"BODY","Yes"
"BLUE HEELER","MALE","Black",1,"BODY","Yes"
"BLACK LAB","FEMALE","Black",1,"HEAD","Yes"
"ENGLISH BULLDOG","FEMALE","Brindle",0,"HEAD","No"
"LABRADOR RETRIV","MALE","Black",1,"HEAD","Yes"
"PIT BULL","MALE","White",1,"BODY","Yes"
"CHICHAUHUA","FEMALE","Black",1,"HEAD","Yes"
"AAUST. TERR.","MALE","Black",0,"BODY","No"
"MALAMUTE","FEMALE","Black",0,"BODY","No"
"PIT BULL","MALE","White",0,"BODY","No"
"HEELER","MALE","White",1,"BODY","Yes"
"LABRADOR RETRIV","MALE","White",0,"BODY","No"
"AMER. BULL DOG","MALE","White",1,"BODY","Yes"
"BOXER","MALE","Black",1,"BODY","Yes"
"AM BULLDOG","MALE","White",0,"BODY","No"
"SCHNAUZER","MALE","Gray",1,"BODY","Yes"
"LABRADOR RETRIV","FEMALE","Black",1,"BODY","Yes"
"BOXER","MALE","Brown",1,"HEAD","Yes"
"GERM SHEPHERD","FEMALE","Black",1,"BODY","Yes"
"CHOW CHOW","FEMALE","Tan",0,"BODY","No"
"BORDER COLLIE","MALE","Black",0,"BODY","No"
"PIT BULL","FEMALE","White",1,"BODY","Yes"
"ROTTWEILER","FEMALE","Black",3,"HEAD","Yes"
"PIT BULL","MALE","Black",0,"HEAD","No"
"PIT BULL","FEMALE","Brown",0,"BODY","No"
"PIT BULL","FEMALE","Brown",0,"BODY","No"
"PIT BULL","MALE","Brown",0,"BODY","Yes"
"PIT BULL","FEMALE","Brown",0,"BODY","No"
"BEAGLE","MALE","White",0,"BODY","No"
"WEIMARANER","FEMALE","Brown",1,"BODY","Yes"
"SHIH TZU","MALE","Black",1,"HEAD","Yes"
"BASSET HOUND","FEMALE","Black",1,"HEAD","Yes"
"PIT BULL","FEMALE","Black",1,"BODY","Yes"
"GREAT DANE","MALE","Black",1,"BODY","Yes"
"MALTASE","MALE","White",1,"BODY","Yes"
"BOXER","FEMALE","Black",0,"BODY","No"
"PIT BULL","FEMALE","Brown",1,"HEAD","Yes"
"DOBERMAN","FEMALE","Black",0,"BODY","No"
"GERM SHEPHERD","FEMALE","Black",1,"BODY","Yes"
"BOXER","FEMALE","White",1,"BODY","Yes"
"PIT BULL","MALE","Brindle",1,"BODY","Yes"
"RAT TERRIER","MALE","Brindle",0,"BODY","No"
"LABRADOR RETRIV","MALE","Black",3,"BODY","Yes"
"PIT BULL","MALE","Black",0,"BODY","No"
"PIT BULL","FEMALE","White",0,"BODY","No"
"LABRADOR RETRIV","MALE","Black",3,"HEAD","Yes"
"BOXER","MALE","Black",0,"HEAD","No"
"AKITA","MALE","Brown",3,"BODY","Yes"
"PIT BULL","MALE","Black",3,"BODY","Yes"
"PIT BULL","FEMALE","Brown",0,"BODY","No"
"PIT BULL","MALE","White",1,"HEAD","Yes"
"PIT BULL","MALE","Black",0,"BODY","No"
"LABRADOR RETRIV","MALE","Black",1,"HEAD","Yes"
"PIT BULL","MALE","Black",0,"BODY","Yes"
"LABRADOR RETRIV","MALE","Black",0,"BODY","No"
"PIT BULL","MALE","Brown",3,"BODY","Yes"
"BOXER","MALE","White",1,"BODY","Yes"
"AAUST. TERR.","MALE","Black",0,"BODY","No"
"PIT BULL","FEMALE","White",1,"BODY","Yes"
"AMER. BULL DOG","MALE","Black",0,"HEAD","No"
"AM. ESKIMO","MALE","White",1,"BODY","Yes"
"DOBERMAN","MALE","Black",1,"BODY","Yes"
"PIT BULL","MALE","White",0,"BODY","Yes"
"ALASK. MALAMUTE","MALE","Black",0,"BODY","No"
"DOBERMAN","FEMALE","Tan",1,"BODY","Yes"
"GERM SHEPHERD","FEMALE","Black",1,"HEAD","Yes"
"CANE CORSO","MALE","Black",0,"HEAD","No"
"CHICHAUHUA","FEMALE","Black",1,"HEAD","Yes"
"LABRADOR RETRIV","MALE","Brown",0,"BODY","No"
"PIT BULL","MALE","Black",0,"BODY","No"
"PIT BULL","MALE","Black",1,"BODY","Yes"
"PIT BULL","MALE","Brown",0,"BODY","No"
"CHICHAUHUA","FEMALE","White",0,"BODY","No"
"POODLE","MALE","White",0,"BODY","No"
"GERM SHEPHERD","MALE","Black",1,"BODY","Yes"
"PIT BULL","FEMALE","Black",1,"BODY","Yes"
"BOXER","MALE","Black",0,"BODY","No"
"DOBERMAN","FEMALE","Brown",1,"HEAD","Yes"
"PIT BULL","MALE","White",3,"BODY","Yes"
"DOBERMAN","MALE","Black",0,"BODY","No"
"PIT BULL","FEMALE","Tan",1,"BODY","Yes"
"BOXER","MALE","White",1,"BODY","Yes"
"POMERANIAN","MALE","Tan",0,"BODY","No"
"GERM SHEPHERD","MALE","Black",3,"BODY","Yes"
"BOSTON TERRIER","MALE","Black",3,"HEAD","Yes"
"AAUST. TERR.","FEMALE","Black",1,"BODY","Yes"
"PIT BULL","FEMALE","White",0,"HEAD","Yes"
"PIT BULL","FEMALE","White",1,"BODY","Yes"
"PIT BULL","MALE","Black",3,"BODY","Yes"
"GREYHOUND","MALE","Brindle",0,"HEAD","Yes"
"GERM SHEPHERD","MALE","Black",1,"BODY","Yes"
"PIT BULL","FEMALE","White",0,"BODY","No"
"PIT BULL","MALE","White",0,"BODY","No"
"GERM SHEPHERD","MALE","White",0,"BODY","No"
"PIT BULL","FEMALE","Tan",0,"BODY","Yes"
"HAVANESE","MALE","Black",0,"BODY","No"
"CANE CORSO","MALE","Black",0,"BODY","No"
"POMERANIAN","MALE","White",0,"BODY","Yes"
"GREAT DANE","FEMALE","Black",0,"BODY","No"
"PIT BULL","FEMALE","White",0,"BODY","No"
"CORGI","MALE","White",0,"BODY","No"
"GOLDEN LAB","MALE","Tan",0,"HEAD","No"
"PIT BULL","MALE","Black",0,"HEAD","No"
"MALTASE","FEMALE","White",0,"BODY","No"
"PIT BULL","MALE","White",0,"BODY","Yes"
"PIT BULL","MALE","Brown",0,"BODY","No"
"PIT BULL","FEMALE","Brown",0,"BODY","No"
"AAUST. TERR.","MALE","Black",0,"BODY","No"
"CANE CORSO","MALE","Black",0,"BODY","No"
"BLACK LAB","MALE","Black",0,"BODY","No"
"CHICHAUHUA","FEMALE","Tan",0,"HEAD","No"
"POMERANIAN","MALE","Red",0,"HEAD","No"
"LABRADOR RETRIV","FEMALE","Black",0,"BODY","No"
